# Chunk-averaged data for fix 5 and group water3
# Timestep Number-of-chunks Total-count
# Chunk Coord1 Ncount density/number
1000000 62 12918
  1 -1 0 0
  2 1 147.8 0.00337673
  3 3 299.5 0.00684256
  4 5 313.6 0.0071647
  5 7 352.7 0.008058
  6 9 337.5 0.00771073
  7 11 315.2 0.00720125
  8 13 339.3 0.00775186
  9 15 307.9 0.00703447
  10 17 332 0.00758508
  11 19 322.6 0.00737032
  12 21 324.4 0.00741144
  13 23 338.9 0.00774272
  14 25 325.4 0.00743429
  15 27 335.5 0.00766504
  16 29 332.2 0.00758965
  17 31 320.8 0.0073292
  18 33 283.5 0.00647702
  19 35 283.5 0.00647702
  20 37 221.9 0.00506966
  21 39 185.2 0.00423119
  22 41 120.3 0.00274845
  23 43 82.6 0.00188713
  24 45 51.6 0.00117889
  25 47 23.4 0.000534611
  26 49 7.7 0.000175919
  27 51 0 0
  28 53 0 0
  29 55 0 0
  30 57 0 0
  31 59 0 0
  32 61 0 0
  33 63 0 0
  34 65 0 0
  35 67 1.1 2.51313e-05
  36 69 7.7 0.000175919
  37 71 19.5 0.000445509
  38 73 44.6 0.00101896
  39 75 88.6 0.00202421
  40 77 125.7 0.00287182
  41 79 188.5 0.00430659
  42 81 224 0.00511764
  43 83 265.2 0.00605892
  44 85 289.4 0.00661181
  45 87 326 0.007448
  46 89 319 0.00728807
  47 91 336.6 0.00769017
  48 93 320.2 0.00731549
  49 95 332.8 0.00760335
  50 97 303.2 0.00692709
  51 99 337.1 0.00770159
  52 101 314.1 0.00717612
  53 103 334.6 0.00764448
  54 105 313.4 0.00716013
  55 107 326.8 0.00746627
  56 109 343.1 0.00783867
  57 111 325.1 0.00742744
  58 113 350.8 0.00801459
  59 115 330.8 0.00755766
  60 117 269.9 0.0061663
  61 119 175.2 0.00400273
  62 121 0 0
