# Chunk-averaged data for fix 4 and group tails
# Timestep Number-of-chunks Total-count
# Chunk Coord1 Ncount density/number
1000000 62 5536
  1 -1 0 0
  2 1 0 0
  3 3 0 0
  4 5 0 0
  5 7 0 0
  6 9 0 0
  7 11 0 0
  8 13 0 0
  9 15 0 0
  10 17 0 0
  11 19 0 0
  12 21 0 0
  13 23 0 0
  14 25 0 0
  15 27 0 0
  16 29 0 0
  17 31 0 0
  18 33 0 0
  19 35 0 0
  20 37 0 0
  21 39 0 0
  22 41 13.8 0.000315283
  23 43 62.3 0.00142334
  24 45 165.4 0.00377883
  25 47 305.1 0.0069705
  26 49 371.4 0.00848523
  27 51 429.9 0.00982176
  28 53 410.4 0.00937625
  29 55 399.1 0.00911809
  30 57 403.6 0.0092209
  31 59 367.8 0.00840299
  32 61 394.8 0.00901984
  33 63 392.7 0.00897187
  34 65 400.8 0.00915692
  35 67 408.6 0.00933513
  36 69 384.9 0.00879366
  37 71 319 0.00728807
  38 73 198.9 0.00454419
  39 75 82.2 0.00187799
  40 77 19.3 0.00044094
  41 79 4.5 0.00010281
  42 81 1.5 3.42699e-05
  43 83 0 0
  44 85 0 0
  45 87 0 0
  46 89 0 0
  47 91 0 0
  48 93 0 0
  49 95 0 0
  50 97 0 0
  51 99 0 0
  52 101 0 0
  53 103 0 0
  54 105 0 0
  55 107 0 0
  56 109 0 0
  57 111 0 0
  58 113 0 0
  59 115 0 0
  60 117 0 0
  61 119 0 0
  62 121 0 0
