# Chunk-averaged data for fix 6 and group heads
# Timestep Number-of-chunks Total-count
# Chunk Coord1 Ncount density/number
1000000 62 692
  1 -1 0 0
  2 1 0 0
  3 3 0 0
  4 5 0 0
  5 7 0 0
  6 9 0 0
  7 11 0 0
  8 13 0 0
  9 15 0 0
  10 17 0 0
  11 19 0 0
  12 21 0 0
  13 23 0 0
  14 25 0.4 8.93755e-06
  15 27 1.6 3.57502e-05
  16 29 3 6.70316e-05
  17 31 16.9 0.000377612
  18 33 33 0.000737348
  19 35 53.3 0.00119093
  20 37 78.8 0.0017607
  21 39 82.2 0.00183667
  22 41 48.7 0.00108815
  23 43 29.2 0.000652441
  24 45 12.7 0.000283767
  25 47 1.2 2.68127e-05
  26 49 0 0
  27 51 0 0
  28 53 0 0
  29 55 0 0
  30 57 0 0
  31 59 0 0
  32 61 0 0
  33 63 0 0
  34 65 0 0
  35 67 0 0
  36 69 0 0
  37 71 2 4.46878e-05
  38 73 1 2.23439e-05
  39 75 26.4 0.000589878
  40 77 44 0.000983131
  41 79 57 0.0012736
  42 81 77.9 0.00174059
  43 83 63.2 0.00141213
  44 85 39.3 0.000878114
  45 87 15.6 0.000348565
  46 89 4.6 0.000102782
  47 91 0 0
  48 93 0 0
  49 95 0 0
  50 97 0 0
  51 99 0 0
  52 101 0 0
  53 103 0 0
  54 105 0 0
  55 107 0 0
  56 109 0 0
  57 111 0 0
  58 113 0 0
  59 115 0 0
  60 117 0 0
  61 119 0 0
  62 121 0 0
