# Chunk-averaged data for fix 6 and group heads
# Timestep Number-of-chunks Total-count
# Chunk Coord1 Ncount density/number
1000000 62 692
  1 -1 0 0
  2 1 0 0
  3 3 0 0
  4 5 0 0
  5 7 0 0
  6 9 0 0
  7 11 0 0
  8 13 0 0
  9 15 0 0
  10 17 0 0
  11 19 0 0
  12 21 0 0
  13 23 0 0
  14 25 0 0
  15 27 2 4.56932e-05
  16 29 10.6 0.000242174
  17 31 35.6 0.00081334
  18 33 38.1 0.000870456
  19 35 47.6 0.0010875
  20 37 65.1 0.00148731
  21 39 62.7 0.00143248
  22 41 40.8 0.000932142
  23 43 32.3 0.000737946
  24 45 20.9 0.000477494
  25 47 5 0.000114233
  26 49 0.3 6.85399e-06
  27 51 0 0
  28 53 0 0
  29 55 0 0
  30 57 0 0
  31 59 0 0
  32 61 0 0
  33 63 0 0
  34 65 0 0
  35 67 0 0
  36 69 0 0
  37 71 1.1 2.51313e-05
  38 73 7.2 0.000164496
  39 75 24.4 0.000557457
  40 77 43.1 0.000984689
  41 79 48 0.00109664
  42 81 60.8 0.00138907
  43 83 53.5 0.00122229
  44 85 45 0.0010281
  45 87 28.1 0.00064199
  46 89 14.8 0.00033813
  47 91 5 0.000114233
  48 93 0 0
  49 95 0 0
  50 97 0 0
  51 99 0 0
  52 101 0 0
  53 103 0 0
  54 105 0 0
  55 107 0 0
  56 109 0 0
  57 111 0 0
  58 113 0 0
  59 115 0 0
  60 117 0 0
  61 119 0 0
  62 121 0 0
