# Chunk-averaged data for fix 5 and group water3
# Timestep Number-of-chunks Total-count
# Chunk Coord1 Ncount density/number
1000000 62 12873
  1 -1 0 0
  2 1 176.2 0.00402557
  3 3 292.5 0.00668264
  4 5 311.6 0.00711901
  5 7 323.8 0.00739773
  6 9 309 0.00705961
  7 11 339.4 0.00775414
  8 13 304.2 0.00694994
  9 15 354.9 0.00810826
  10 17 322.7 0.0073726
  11 19 326.8 0.00746627
  12 21 332.5 0.0075965
  13 23 317.8 0.00726066
  14 25 332.8 0.00760335
  15 27 333.1 0.00761021
  16 29 336.1 0.00767875
  17 31 319.6 0.00730178
  18 33 315.8 0.00721496
  19 35 277.2 0.00633308
  20 37 223.1 0.00509708
  21 39 181.3 0.00414209
  22 41 135.3 0.00309115
  23 43 83.9 0.00191683
  24 45 22.4 0.000511764
  25 47 9.3 0.000212474
  26 49 1.7 3.88393e-05
  27 51 0 0
  28 53 1 2.28466e-05
  29 55 0 0
  30 57 0 0
  31 59 0 0
  32 61 0 0
  33 63 0 0
  34 65 0 0
  35 67 0 0
  36 69 0 0
  37 71 8.8 0.00020105
  38 73 28.7 0.000655698
  39 75 90.5 0.00206762
  40 77 138.1 0.00315512
  41 79 201.7 0.00460816
  42 81 207.4 0.00473839
  43 83 301 0.00687683
  44 85 289.3 0.00660953
  45 87 321.9 0.00735433
  46 89 340.4 0.00777699
  47 91 339.6 0.00775871
  48 93 332.5 0.0075965
  49 95 316.8 0.00723781
  50 97 334.3 0.00763762
  51 99 317.5 0.0072538
  52 101 332.9 0.00760564
  53 103 316.5 0.00723095
  54 105 331.9 0.00758279
  55 107 323.4 0.0073886
  56 109 333.9 0.00762849
  57 111 335.8 0.00767189
  58 113 314 0.00717384
  59 115 301.8 0.00689511
  60 117 284 0.00648844
  61 119 146.3 0.00334246
  62 121 0 0
