# Time-averaged data for fix op
# TimeStep f_pull[1] f_pull[2] f_pull[3] f_pull[4] f_pull[5] f_pull[6] f_pull[7]
400000 0 0 0 0 13.8213 173.487 0
401000 0 0 -2.83129 -2.83129 14.2213 173.398 1.29785
402000 0 0 -5.55342 -5.55342 14.6213 173.412 2.09225
403000 0 0 4.26076 4.26076 15.0213 174.162 2.04291
404000 0 0 -3.89874 -3.89874 15.4213 174.563 1.00989
405000 0 0 -1.38709 -1.38709 15.8213 174.772 1.94349
406000 0 0 -5.44565 -5.44565 16.2213 175.233 3.46237
407000 0 0 1.47192 1.47192 16.6213 175.803 5.44517
408000 0 0 0.992374 0.992374 17.0213 175.99 5.44751
409000 0 0 3.01094 3.01094 17.4213 175.91 2.97491
410000 0 0 -5.27857 -5.27857 17.8213 176.597 4.61149
411000 0 0 -5.06771 -5.06771 18.2213 176.854 5.89046
412000 0 0 -3.51978 -3.51978 18.6213 177.191 8.04732
413000 0 0 3.46188 3.46188 19.0213 177.496 7.6859
414000 0 0 -0.920708 -0.920708 19.4213 177.525 8.46113
415000 0 0 -1.20484 -1.20484 19.8213 177.483 8.67055
416000 0 0 -5.99123 -5.99123 20.2213 177.166 10.4791
417000 0 0 -5.05289 -5.05289 20.6213 177.064 12.9876
418000 0 0 -4.98951 -4.98951 21.0213 177.037 15.907
419000 0 0 -3.84141 -3.84141 21.4213 176.621 16.0666
420000 0 0 -3.17846 -3.17846 21.8213 176.64 18.0944
421000 0 0 -10.1312 -10.1312 22.2213 176.219 21.7931
422000 0 0 -10.0436 -10.0436 22.6213 176.822 25.1697
423000 0 0 -7.89371 -7.89371 23.0213 177.35 28.376
424000 0 0 -2.13048 -2.13048 23.4213 177.702 29.3502
425000 0 0 -8.60696 -8.60696 23.8213 177.774 31.7304
426000 0 0 -2.78601 -2.78601 24.2213 178.081 34.1461
427000 0 0 -4.64206 -4.64206 24.6213 177.919 36.5377
428000 0 0 -2.41499 -2.41499 25.0213 178.236 38.2631
429000 0 0 0.133514 0.133514 25.4213 178.084 39.5142
430000 0 0 -5.48621 -5.48621 25.8213 177.697 40.638
431000 0 0 -5.17308 -5.17308 26.2213 177.849 42.5191
432000 0 0 -9.02935 -9.02935 26.6213 178.339 45.4318
433000 0 0 -4.56432 -4.56432 27.0213 178.319 48.2182
434000 0 0 -3.62279 -3.62279 27.4213 179.088 49.0782
435000 0 0 -8.40519 -8.40519 27.8213 179.272 50.6645
436000 0 0 -3.75785 -3.75785 28.2213 179.346 53.3917
437000 0 0 -5.40238 -5.40238 28.6213 179.245 55.8945
438000 0 0 -4.33403 -4.33403 29.0213 178.985 58.9306
439000 0 0 -12.722 -12.722 29.4213 178.769 62.2998
440000 0 0 -1.33692 -1.33692 29.8213 178.589 63.7998
441000 0 0 -6.57143 -6.57143 30.2213 178.358 65.7553
442000 0 0 -4.95163 -4.95163 30.6213 178.006 67.9974
443000 0 0 -4.66277 -4.66277 31.0213 178.244 71.0471
444000 0 0 -8.89049 -8.89049 31.4213 178.039 73.362
445000 0 0 -1.22361 -1.22361 31.8213 178.537 74.5192
446000 0 0 -6.1124 -6.1124 32.2213 178.352 74.2732
447000 0 0 -4.66807 -4.66807 32.6213 178.913 78.1597
448000 0 0 -0.393394 -0.393394 33.0213 179.392 78.5544
449000 0 0 3.3761 3.3761 33.4213 180.082 79.43
450000 0 0 -1.31032 -1.31032 33.8213 179.989 79.1474
451000 0 0 -3.32191 -3.32191 34.2213 180.457 80.8426
452000 0 0 0.430904 0.430904 34.6213 181.155 80.6588
453000 0 0 -2.53758 -2.53758 35.0213 181.421 82.7176
454000 0 0 -5.4166 -5.4166 35.4213 181.844 84.1458
455000 0 0 -9.67221 -9.67221 35.8213 181.908 87.0799
456000 0 0 -3.11788 -3.11788 36.2213 181.952 89.1838
457000 0 0 -3.1196 -3.1196 36.6213 181.589 89.6473
458000 0 0 -9.11331 -9.11331 37.0213 181.518 90.9198
459000 0 0 -2.66632 -2.66632 37.4213 180.944 93.3567
460000 0 0 -6.1652 -6.1652 37.8213 181.256 94.7758
461000 0 0 0.325289 0.325289 38.2213 181.104 96.9171
462000 0 0 -4.82206 -4.82206 38.6213 181.128 97.9851
463000 0 0 -0.818818 -0.818818 39.0213 181.133 98.9959
464000 0 0 -2.5646 -2.5646 39.4213 180.946 99.9828
465000 0 0 -11.2183 -11.2183 39.8213 181.154 102.658
466000 0 0 -7.61911 -7.61911 40.2213 181.689 105.355
467000 0 0 -8.90461 -8.90461 40.6213 181.806 108.608
468000 0 0 -3.9383 -3.9383 41.0213 182.327 110.692
469000 0 0 -2.32298 -2.32298 41.4213 182.621 111.966
470000 0 0 -7.46766 -7.46766 41.8213 182.904 113.893
471000 0 0 -3.44436 -3.44436 42.2213 183.34 115.874
472000 0 0 -10.4658 -10.4658 42.6213 183.508 118.405
473000 0 0 -6.70428 -6.70428 43.0213 183.278 121.811
474000 0 0 -6.44881 -6.44881 43.4213 183.026 124.244
475000 0 0 -3.17736 -3.17736 43.8213 184.126 125.781
476000 0 0 -4.91947 -4.91947 44.2213 184.675 127.586
477000 0 0 -4.9712 -4.9712 44.6213 184.835 128.434
478000 0 0 -7.58083 -7.58083 45.0213 184.688 131.097
479000 0 0 -4.24223 -4.24223 45.4213 184.789 132.301
480000 0 0 -1.4261 -1.4261 45.8213 184.921 133.978
481000 0 0 -6.24455 -6.24455 46.2213 184.738 136.299
482000 0 0 -3.47433 -3.47433 46.6213 185.089 137.884
483000 0 0 -11.1009 -11.1009 47.0213 185.998 140.6
484000 0 0 -6.04314 -6.04314 47.4213 186.236 144.35
485000 0 0 -5.02241 -5.02241 47.8213 187.239 145.739
486000 0 0 -7.14628 -7.14628 48.2213 186.522 148.605
487000 0 0 -7.00452 -7.00452 48.6213 186.142 151.141
488000 0 0 -5.70335 -5.70335 49.0213 186.534 154.033
489000 0 0 -4.42096 -4.42096 49.4213 186.815 155.887
490000 0 0 -8.54343 -8.54343 49.8213 187.068 158.412
491000 0 0 -6.05427 -6.05427 50.2213 187.033 160.832
492000 0 0 -9.24739 -9.24739 50.6213 186.906 164.827
493000 0 0 -5.21866 -5.21866 51.0213 187.565 167.835
494000 0 0 -3.75144 -3.75144 51.4213 187.348 169.691
495000 0 0 -7.50808 -7.50808 51.8213 187.653 173.65
496000 0 0 -5.46142 -5.46142 52.2213 187.733 175.579
497000 0 0 -7.67807 -7.67807 52.6213 187.708 178.966
498000 0 0 -14.2161 -14.2161 53.0213 187.406 183.415
499000 0 0 -8.41444 -8.41444 53.4213 187.5 187.202
500000 0 0 -3.75279 -3.75279 53.8213 188.137 190.537
501000 0 0 -8.33328 -8.33328 54.2213 188.328 193.421
502000 0 0 -10.2707 -10.2707 54.6213 189.006 196.71
503000 0 0 -10.1094 -10.1094 55.0213 189.397 201.31
504000 0 0 -8.82664 -8.82664 55.4213 189.832 205.101
505000 0 0 -5.46721 -5.46721 55.8213 190.175 208.297
506000 0 0 -10.6235 -10.6235 56.2213 190.34 211.908
507000 0 0 -10.7819 -10.7819 56.6213 191.169 216.791
508000 0 0 -5.61114 -5.61114 57.0213 191.486 219.055
509000 0 0 -14.2893 -14.2893 57.4213 191.794 222.889
510000 0 0 -13.9753 -13.9753 57.8213 192.023 226.868
511000 0 0 -7.30206 -7.30206 58.2213 192.284 231.441
512000 0 0 -7.41925 -7.41925 58.6213 192.376 234.326
513000 0 0 -6.69845 -6.69845 59.0213 192.737 236.835
514000 0 0 -7.92619 -7.92619 59.4213 192.687 240.119
515000 0 0 -9.83722 -9.83722 59.8213 192.782 244.004
516000 0 0 -7.16903 -7.16903 60.2213 193.139 247.359
517000 0 0 -6.64949 -6.64949 60.6213 192.831 249.832
518000 0 0 -9.96722 -9.96722 61.0213 192.585 252.751
519000 0 0 -11.4475 -11.4475 61.4213 192.863 255.59
520000 0 0 -10.5462 -10.5462 61.8213 193.314 259.281
521000 0 0 -4.73711 -4.73711 62.2213 192.977 262.165
522000 0 0 -11.1443 -11.1443 62.6213 193.173 265.622
523000 0 0 -9.96423 -9.96423 63.0213 193.936 269.651
524000 0 0 -10.962 -10.962 63.4213 193.829 274.912
525000 0 0 -15.3362 -15.3362 63.8213 194.04 279.657
526000 0 0 -11.9931 -11.9931 64.2213 194.931 285.017
527000 0 0 -7.95657 -7.95657 64.6213 195.853 289.657
528000 0 0 -2.08526 -2.08526 65.0213 196.148 292.554
529000 0 0 -13.1359 -13.1359 65.4213 196.317 295.564
530000 0 0 -18.0554 -18.0554 65.8213 196.788 301.954
531000 0 0 -11.9403 -11.9403 66.2213 197.183 307.784
532000 0 0 -8.63859 -8.63859 66.6213 197.732 311.459
533000 0 0 -8.73551 -8.73551 67.0213 198.153 314.206
534000 0 0 -14.1879 -14.1879 67.4213 198.652 319.133
535000 0 0 -12.3179 -12.3179 67.8213 198.893 323.817
536000 0 0 -15.5387 -15.5387 68.2213 199.092 329.22
537000 0 0 -12.192 -12.192 68.6213 199.641 333.249
538000 0 0 -8.95888 -8.95888 69.0213 199.823 338.017
539000 0 0 -7.21995 -7.21995 69.4213 200.081 340.331
540000 0 0 -12.9188 -12.9188 69.8213 200.344 345.592
541000 0 0 -11.7337 -11.7337 70.2213 200.85 350.451
542000 0 0 -11.7097 -11.7097 70.6213 200.819 354.462
543000 0 0 -7.17235 -7.17235 71.0213 201.323 358.025
544000 0 0 -15.0692 -15.0692 71.4213 200.952 362.362
545000 0 0 -12.51 -12.51 71.8213 201.267 367.749
546000 0 0 -8.974 -8.974 72.2213 201.582 371.34
547000 0 0 -15.3277 -15.3277 72.6213 201.334 375.012
548000 0 0 -15.811 -15.811 73.0213 201.522 380.787
549000 0 0 -10.2213 -10.2213 73.4213 201.532 385.087
550000 0 0 -13.046 -13.046 73.8213 201.617 389.375
551000 0 0 -14.3993 -14.3993 74.2213 201.684 395.629
552000 0 0 -11.2314 -11.2314 74.6213 201.911 398.736
553000 0 0 -8.37594 -8.37594 75.0213 201.872 402.837
554000 0 0 -7.3511 -7.3511 75.4213 202.246 407.342
555000 0 0 -14.3675 -14.3675 75.8213 202.274 411.36
556000 0 0 -13.3418 -13.3418 76.2213 202.873 417.16
557000 0 0 -12.6303 -12.6303 76.6213 202.678 422.217
558000 0 0 -7.49261 -7.49261 77.0213 203.111 426.669
559000 0 0 -8.59917 -8.59917 77.4213 203.517 430.979
560000 0 0 -18.774 -18.774 77.8213 203.419 437.059
561000 0 0 -14.9491 -14.9491 78.2213 204.236 444.762
562000 0 0 -12.9252 -12.9252 78.6213 204.853 450.251
563000 0 0 -17.8136 -17.8136 79.0213 204.639 455.736
564000 0 0 -13.0645 -13.0645 79.4213 205.234 463.939
565000 0 0 -8.84982 -8.84982 79.8213 205.343 468.92
566000 0 0 -22.3632 -22.3632 80.2213 205.755 474.51
567000 0 0 -14.7217 -14.7217 80.6213 206.151 481.658
568000 0 0 -20.114 -20.114 81.0213 206.652 488.042
569000 0 0 -20.1527 -20.1527 81.4213 206.413 496.257
570000 0 0 -13.7164 -13.7164 81.8213 207.028 502.693
571000 0 0 -17.9967 -17.9967 82.2213 207.347 508.827
572000 0 0 -17.6529 -17.6529 82.6213 207.473 516.045
573000 0 0 -20.6678 -20.6678 83.0213 207.792 524.938
574000 0 0 -14.143 -14.143 83.4213 208.236 530.896
575000 0 0 -17.4635 -17.4635 83.8213 208.214 537.612
576000 0 0 -15.3188 -15.3188 84.2213 208.756 544.081
577000 0 0 -17.722 -17.722 84.6213 209.094 551.13
578000 0 0 -13.8039 -13.8039 85.0213 209.635 556.709
579000 0 0 -16.3355 -16.3355 85.4213 209.964 562.768
580000 0 0 -18.5878 -18.5878 85.8213 210.597 569.558
581000 0 0 -20.1825 -20.1825 86.2213 211.19 577.64
582000 0 0 -21.0032 -21.0032 86.6213 211.366 585.183
583000 0 0 -23.7828 -23.7828 87.0213 211.872 593.18
584000 0 0 -17.846 -17.846 87.4213 211.88 601.234
585000 0 0 -19.8325 -19.8325 87.8213 211.834 608.819
586000 0 0 -22.2528 -22.2528 88.2213 212.109 616.899
587000 0 0 -25.1187 -25.1187 88.6213 212.267 625.749
588000 0 0 -23.1061 -23.1061 89.0213 212.571 634.513
589000 0 0 -16.9371 -16.9371 89.4213 212.866 641.806
590000 0 0 -19.9798 -19.9798 89.8213 213.066 648.325
591000 0 0 -24.571 -24.571 90.2213 213.362 657.39
592000 0 0 -20.2706 -20.2706 90.6213 213.905 666.912
593000 0 0 -22.0967 -22.0967 91.0213 214.267 674.096
594000 0 0 -20.0847 -20.0847 91.4213 214.603 682.407
595000 0 0 -16.173 -16.173 91.8213 215.164 690.886
596000 0 0 -22.0041 -22.0041 92.2213 215.064 699.386
597000 0 0 -17.7873 -17.7873 92.6213 215.279 707.659
598000 0 0 -19.3861 -19.3861 93.0213 215.929 714.821
599000 0 0 -23.0461 -23.0461 93.4213 216.767 722.788
600000 0 0 -20.3738 -20.3738 93.8213 217.47 732.56
601000 0 0 -21.6961 -21.6961 94.2213 217.934 741.548
602000 0 0 -15.9713 -15.9713 94.6213 218.521 747.77
603000 0 0 -26.5575 -26.5575 95.0213 218.878 756.278
604000 0 0 -22.2821 -22.2821 95.4213 218.968 765.005
605000 0 0 -23.7482 -23.7482 95.8213 219.295 773.635
606000 0 0 -26.9294 -26.9294 96.2213 219.575 783.076
607000 0 0 -21.7737 -21.7737 96.6213 219.739 791.976
608000 0 0 -27.2744 -27.2744 97.0213 220.114 801.598
609000 0 0 -28.0189 -28.0189 97.4213 220.418 813.144
610000 0 0 -24.5173 -24.5173 97.8213 220.578 823.323
611000 0 0 -27.4113 -27.4113 98.2213 221.064 833.243
612000 0 0 -28.5241 -28.5241 98.6213 221.014 843.745
613000 0 0 -27.4463 -27.4463 99.0213 221.482 854.987
614000 0 0 -23.5005 -23.5005 99.4213 221.762 865.428
615000 0 0 -22.3185 -22.3185 99.8213 222.226 874.206
616000 0 0 -29.1384 -29.1384 100.221 222.056 884.002
617000 0 0 -24.7283 -24.7283 100.621 222.338 894.966
618000 0 0 -28.4881 -28.4881 101.021 222.777 906.822
619000 0 0 -24.972 -24.972 101.421 223.153 917.396
620000 0 0 -24.0848 -24.0848 101.821 224.013 927.415
621000 0 0 -29.7701 -29.7701 102.221 224.001 938.514
622000 0 0 -28.6625 -28.6625 102.621 224.062 951.044
623000 0 0 -30.3938 -30.3938 103.021 224.361 963.372
624000 0 0 -31.4684 -31.4684 103.421 224.91 974.855
625000 0 0 -27.6852 -27.6852 103.821 225.794 987.088
626000 0 0 -31.6848 -31.6848 104.221 226.565 999.916
627000 0 0 -36.7196 -36.7196 104.621 226.553 1012.34
628000 0 0 -33.7137 -33.7137 105.021 226.674 1026.16
629000 0 0 -27.357 -27.357 105.421 227.661 1039.21
630000 0 0 -31.581 -31.581 105.821 227.836 1050.82
631000 0 0 -31.8477 -31.8477 106.221 228.456 1062.52
632000 0 0 -29.484 -29.484 106.621 229.403 1075.67
633000 0 0 -27.5798 -27.5798 107.021 230.252 1086.66
634000 0 0 -29.7205 -29.7205 107.421 230.641 1099.19
635000 0 0 -31.8389 -31.8389 107.821 231.211 1111.44
636000 0 0 -31.5393 -31.5393 108.221 231.993 1124.1
637000 0 0 -25.8736 -25.8736 108.621 232.494 1134.99
638000 0 0 -34.2513 -34.2513 109.021 233.215 1146.38
639000 0 0 -31.3624 -31.3624 109.421 233.919 1158.92
640000 0 0 -33.5528 -33.5528 109.821 234.724 1170.83
641000 0 0 -24.0776 -24.0776 110.221 235.311 1182.28
642000 0 0 -26.3772 -26.3772 110.621 236.1 1193.59
643000 0 0 -32.7152 -32.7152 111.021 236.384 1205.48
644000 0 0 -31.424 -31.424 111.421 236.683 1218.8
645000 0 0 -29.998 -29.998 111.821 237.27 1230.66
646000 0 0 -31.9972 -31.9972 112.221 238.178 1242.77
647000 0 0 -29.6096 -29.6096 112.621 238.798 1256.39
648000 0 0 -33.9781 -33.9781 113.021 239.423 1268.49
649000 0 0 -32.5843 -32.5843 113.421 240.145 1282.23
650000 0 0 -35.0815 -35.0815 113.821 240.197 1296.1
651000 0 0 -28.8361 -28.8361 114.221 241.312 1309.85
652000 0 0 -31.8052 -31.8052 114.621 241.9 1321.89
653000 0 0 -38.711 -38.711 115.021 241.879 1335.33
654000 0 0 -33.0048 -33.0048 115.421 242.566 1350.43
655000 0 0 -37.0308 -37.0308 115.821 242.42 1364.13
656000 0 0 -35.4014 -35.4014 116.221 243.028 1379.91
657000 0 0 -33.6603 -33.6603 116.621 243.516 1394.58
658000 0 0 -37.8585 -37.8585 117.021 243.527 1408.78
659000 0 0 -35.4951 -35.4951 117.421 244.078 1422.85
660000 0 0 -38.0958 -38.0958 117.821 244.772 1436.78
661000 0 0 -42.0063 -42.0063 118.221 244.895 1452.55
662000 0 0 -30.9231 -30.9231 118.621 245.651 1467.54
663000 0 0 -29.7581 -29.7581 119.021 246.75 1479.7
664000 0 0 -30.2295 -30.2295 119.421 247.637 1492.2
665000 0 0 -40.8202 -40.8202 119.821 248.538 1507.51
666000 0 0 -35.4514 -35.4514 120.221 249.526 1522.01
667000 0 0 -33.5795 -33.5795 120.621 250.434 1536.48
668000 0 0 -31.6595 -31.6595 121.021 250.681 1550.18
669000 0 0 -40.0839 -40.0839 121.421 250.786 1564.88
670000 0 0 -38.9244 -38.9244 121.821 251.087 1580.94
671000 0 0 -39.3202 -39.3202 122.221 251.399 1597.71
672000 0 0 -41.7686 -41.7686 122.621 251.315 1613.27
673000 0 0 -39.5439 -39.5439 123.021 251.534 1628.47
674000 0 0 -44.1339 -44.1339 123.421 252.037 1644.81
675000 0 0 -41.0839 -41.0839 123.821 253.139 1663.05
676000 0 0 -40.0734 -40.0734 124.221 253.547 1679.39
677000 0 0 -45.9508 -45.9508 124.621 253.741 1697.36
678000 0 0 -41.8596 -41.8596 125.021 254.163 1715.18
679000 0 0 -35.8543 -35.8543 125.421 255.061 1731.39
680000 0 0 -35.3898 -35.3898 125.821 255.424 1747.64
681000 0 0 -42.4483 -42.4483 126.221 255.658 1762.48
682000 0 0 -37.4868 -37.4868 126.621 256.04 1777.9
683000 0 0 -43.0966 -43.0966 127.021 256.284 1794.54
684000 0 0 -40.7907 -40.7907 127.421 256.65 1810.21
685000 0 0 -40.5933 -40.5933 127.821 257.158 1824.58
686000 0 0 -39.3825 -39.3825 128.221 257.036 1841.04
687000 0 0 -44.9654 -44.9654 128.621 257.864 1857.42
688000 0 0 -38.7903 -38.7903 129.021 258.667 1873.81
689000 0 0 -41.8842 -41.8842 129.421 259.081 1890.3
690000 0 0 -43.9386 -43.9386 129.821 259.425 1907.34
691000 0 0 -47.8084 -47.8084 130.221 260.002 1924.47
692000 0 0 -41.1976 -41.1976 130.621 260.793 1942.81
693000 0 0 -40.4845 -40.4845 131.021 261.54 1960.01
694000 0 0 -40.0841 -40.0841 131.421 261.664 1977.5
695000 0 0 -46.1152 -46.1152 131.821 261.879 1994.6
696000 0 0 -48.9659 -48.9659 132.221 262.55 2012.29
697000 0 0 -44.9728 -44.9728 132.621 263.224 2029.24
698000 0 0 -44.0503 -44.0503 133.021 263.36 2047.42
699000 0 0 -48.255 -48.255 133.421 263.587 2066.72
700000 0 0 -45.847 -45.847 133.821 264.122 2085.58
701000 0 0 -47.3315 -47.3315 134.221 264.878 2102.65
702000 0 0 -45.6455 -45.6455 134.621 265.609 2121.12
703000 0 0 -43.7762 -43.7762 135.021 266.265 2140.26
704000 0 0 -44.744 -44.744 135.421 266.768 2157.71
705000 0 0 -41.9238 -41.9238 135.821 267.536 2174.94
706000 0 0 -39.0571 -39.0571 136.221 268.205 2191.66
707000 0 0 -38.6714 -38.6714 136.621 268.963 2208.2
708000 0 0 -41.5724 -41.5724 137.021 269.245 2223.79
709000 0 0 -39.9528 -39.9528 137.421 269.862 2240.04
710000 0 0 -43.981 -43.981 137.821 270.073 2257.56
711000 0 0 -39.2113 -39.2113 138.221 270.715 2273.62
712000 0 0 -40.8856 -40.8856 138.621 271.735 2289.22
713000 0 0 -45.3066 -45.3066 139.021 271.902 2307.18
714000 0 0 -42.8797 -42.8797 139.421 272.475 2324.59
715000 0 0 -42.7193 -42.7193 139.821 272.638 2341.36
716000 0 0 -43.1112 -43.1112 140.221 272.742 2358.78
717000 0 0 -42.1165 -42.1165 140.621 273.251 2376.49
718000 0 0 -44.9577 -44.9577 141.021 273.63 2394.6
719000 0 0 -41.4571 -41.4571 141.421 273.805 2411.67
720000 0 0 -42.6245 -42.6245 141.821 274.236 2429.29
721000 0 0 -47.3366 -47.3366 142.221 274.366 2447.35
722000 0 0 -40.7818 -40.7818 142.621 274.593 2465.28
723000 0 0 -36.2201 -36.2201 143.021 275.131 2480.91
724000 0 0 -39.648 -39.648 143.421 275.051 2496.8
725000 0 0 -41.8365 -41.8365 143.821 275.16 2513.07
726000 0 0 -44.2905 -44.2905 144.221 275.61 2530.62
727000 0 0 -39.2473 -39.2473 144.621 276.419 2546.97
728000 0 0 -37.2998 -37.2998 145.021 276.694 2563.04
729000 0 0 -43.5153 -43.5153 145.421 277.208 2579.35
730000 0 0 -39.6204 -39.6204 145.821 277.73 2596.47
731000 0 0 -43.1359 -43.1359 146.221 278.008 2612.5
732000 0 0 -39.7196 -39.7196 146.621 277.869 2629.09
733000 0 0 -42.496 -42.496 147.021 278.674 2645.61
734000 0 0 -42.3329 -42.3329 147.421 279.302 2662.19
735000 0 0 -41.2033 -41.2033 147.821 279.62 2678.84
736000 0 0 -43.6439 -43.6439 148.221 280.305 2696.26
737000 0 0 -41.0998 -41.0998 148.621 280.826 2712.24
738000 0 0 -35.6014 -35.6014 149.021 281.662 2727.9
739000 0 0 -38.5412 -38.5412 149.421 281.919 2742.96
740000 0 0 -40.527 -40.527 149.821 281.773 2758.62
741000 0 0 -36.0462 -36.0462 150.221 282.366 2774.71
742000 0 0 -40.9614 -40.9614 150.621 282.445 2791.45
743000 0 0 -42.7249 -42.7249 151.021 282.884 2808.07
744000 0 0 -36.9235 -36.9235 151.421 283.557 2824.62
745000 0 0 -43.3258 -43.3258 151.821 283.942 2839.7
746000 0 0 -44.9069 -44.9069 152.221 284.367 2855.55
747000 0 0 -44.2489 -44.2489 152.621 284.589 2873.32
748000 0 0 -43.8142 -43.8142 153.021 284.754 2891.2
749000 0 0 -41.6853 -41.6853 153.421 285.41 2908.52
750000 0 0 -39.8447 -39.8447 153.821 286.159 2924.91
751000 0 0 -45.2594 -45.2594 154.221 286.552 2941.88
752000 0 0 -44.5602 -44.5602 154.621 287.346 2959.01
753000 0 0 -39.36 -39.36 155.021 287.98 2977.29
754000 0 0 -43.8102 -43.8102 155.421 288.491 2994.37
755000 0 0 -44.1769 -44.1769 155.821 288.85 3011.54
756000 0 0 -46.5727 -46.5727 156.221 289.168 3029.62
757000 0 0 -45.0996 -45.0996 156.621 289.794 3048.43
758000 0 0 -37.343 -37.343 157.021 290.274 3064.72
759000 0 0 -46.0617 -46.0617 157.421 290.225 3081.31
760000 0 0 -34.4281 -34.4281 157.821 290.528 3097.59
761000 0 0 -37.6231 -37.6231 158.221 290.673 3111.52
762000 0 0 -39.9962 -39.9962 158.621 290.813 3128.43
763000 0 0 -40.7414 -40.7414 159.021 291.099 3144.08
764000 0 0 -35.7142 -35.7142 159.421 291.821 3158.51
765000 0 0 -32.8867 -32.8867 159.821 292.41 3172.02
766000 0 0 -40.8363 -40.8363 160.221 292.602 3187.72
767000 0 0 -38.1818 -38.1818 160.621 293.385 3202.92
768000 0 0 -32.8216 -32.8216 161.021 293.531 3217.72
769000 0 0 -37.6736 -37.6736 161.421 293.853 3231.8
770000 0 0 -37.5685 -37.5685 161.821 294.76 3246.94
771000 0 0 -37.9974 -37.9974 162.221 295.28 3261.34
772000 0 0 -36.5678 -36.5678 162.621 295.66 3276.5
773000 0 0 -42.3705 -42.3705 163.021 295.802 3291.89
774000 0 0 -36.0764 -36.0764 163.421 296.604 3308.21
775000 0 0 -39.8464 -39.8464 163.821 297.215 3323.21
776000 0 0 -45.2724 -45.2724 164.221 297.389 3339.41
777000 0 0 -35.9521 -35.9521 164.621 298.543 3354.95
778000 0 0 -35.587 -35.587 165.021 298.956 3369.67
779000 0 0 -34.1844 -34.1844 165.421 299.341 3383.36
780000 0 0 -34.1912 -34.1912 165.821 299.672 3396.6
781000 0 0 -33.4923 -33.4923 166.221 300.576 3410.28
782000 0 0 -32.523 -32.523 166.621 301.154 3424.49
783000 0 0 -31.3007 -31.3007 167.021 301.97 3438.67
784000 0 0 -38.3304 -38.3304 167.421 302.405 3453.3
785000 0 0 -34.5325 -34.5325 167.821 303.114 3467.09
786000 0 0 -37.8784 -37.8784 168.221 303.25 3481.39
787000 0 0 -31.4018 -31.4018 168.621 303.799 3495.17
788000 0 0 -36.9933 -36.9933 169.021 304.096 3509.08
789000 0 0 -34.5776 -34.5776 169.421 304.207 3522.84
790000 0 0 -33.9074 -33.9074 169.821 304.931 3536.76
791000 0 0 -33.7197 -33.7197 170.221 305.589 3550.04
792000 0 0 -29.5615 -29.5615 170.621 306.024 3562.2
793000 0 0 -37.6067 -37.6067 171.021 305.986 3575.04
794000 0 0 -28.871 -28.871 171.421 306.665 3587.53
795000 0 0 -36.1852 -36.1852 171.821 307.01 3600.98
796000 0 0 -29.6345 -29.6345 172.221 307.86 3614.23
797000 0 0 -29.2945 -29.2945 172.621 307.94 3626.53
798000 0 0 -38.238 -38.238 173.021 308.086 3639.71
799000 0 0 -37.4849 -37.4849 173.421 308.984 3654.74
800000 0 0 -29.0468 -29.0468 173.821 309.664 3668.13
801000 0 0 -33.5496 -33.5496 174.221 309.489 3680.69
802000 0 0 -33.5005 -33.5005 174.621 309.936 3693.44
803000 0 0 -33.1835 -33.1835 175.021 310.191 3707.04
804000 0 0 -32.7731 -32.7731 175.421 310.553 3721.1
805000 0 0 -34.7161 -34.7161 175.821 311.187 3734.4
806000 0 0 -36.9525 -36.9525 176.221 311.792 3748.53
807000 0 0 -36.6563 -36.6563 176.621 311.932 3762.34
808000 0 0 -37.4847 -37.4847 177.021 313.101 3776.37
809000 0 0 -31.4254 -31.4254 177.421 313.32 3789.92
810000 0 0 -36.6003 -36.6003 177.821 313.585 3803.19
811000 0 0 -30.9067 -30.9067 178.221 313.725 3816.08
812000 0 0 -37.3912 -37.3912 178.621 314.017 3830.49
813000 0 0 -35.0493 -35.0493 179.021 314.459 3844.04
814000 0 0 -28.4044 -28.4044 179.421 314.942 3856.62
815000 0 0 -29.5922 -29.5922 179.821 315.606 3868.71
816000 0 0 -30.518 -30.518 180.221 315.812 3880.27
817000 0 0 -31.8701 -31.8701 180.621 315.833 3892.7
818000 0 0 -33.6218 -33.6218 181.021 316.51 3904.86
819000 0 0 -31.2091 -31.2091 181.421 316.773 3917.2
820000 0 0 -24.2158 -24.2158 181.821 317.707 3928.81
821000 0 0 -30.0081 -30.0081 182.221 318.224 3940.24
822000 0 0 -37.1118 -37.1118 182.621 318.826 3953.53
823000 0 0 -30.5397 -30.5397 183.021 319.796 3965.85
824000 0 0 -29.2633 -29.2633 183.421 320.663 3977.95
825000 0 0 -36.4587 -36.4587 183.821 321.175 3990.34
826000 0 0 -30.5287 -30.5287 184.221 321.781 4004.68
827000 0 0 -31.7854 -31.7854 184.621 321.825 4017.09
828000 0 0 -29.8828 -29.8828 185.021 322.201 4030.42
829000 0 0 -30.5432 -30.5432 185.421 322.684 4041.92
830000 0 0 -32.6646 -32.6646 185.821 323.189 4054.24
831000 0 0 -33.5566 -33.5566 186.221 322.974 4066.97
832000 0 0 -37.4914 -37.4914 186.621 322.584 4081.15
833000 0 0 -28.2014 -28.2014 187.021 322.949 4093.68
834000 0 0 -30.1926 -30.1926 187.421 323.423 4105.18
835000 0 0 -30.0044 -30.0044 187.821 323.969 4117.94
836000 0 0 -31.2067 -31.2067 188.221 324.608 4129.19
837000 0 0 -29.875 -29.875 188.621 325.266 4140.97
838000 0 0 -32.0975 -32.0975 189.021 326.037 4153.48
839000 0 0 -28.4754 -28.4754 189.421 327.115 4166.39
840000 0 0 -31.9999 -31.9999 189.821 327.965 4178.5
841000 0 0 -36.1158 -36.1158 190.221 328.263 4192.75
842000 0 0 -30.4001 -30.4001 190.621 328.799 4205.47
843000 0 0 -29.6018 -29.6018 191.021 329.349 4219.36
844000 0 0 -36.8556 -36.8556 191.421 329.421 4232.2
845000 0 0 -28.1195 -28.1195 191.821 329.979 4245.4
846000 0 0 -31.6638 -31.6638 192.221 330.539 4257.88
847000 0 0 -23.4035 -23.4035 192.621 330.872 4269.92
848000 0 0 -29.9254 -29.9254 193.021 330.944 4281.21
849000 0 0 -32.5549 -32.5549 193.421 331.165 4293.58
850000 0 0 -33.8301 -33.8301 193.821 331.563 4307.2
851000 0 0 -30.7383 -30.7383 194.221 332.056 4320.39
852000 0 0 -30.4164 -30.4164 194.621 332.392 4333.24
853000 0 0 -23.2199 -23.2199 195.021 332.943 4345.05
854000 0 0 -30.4133 -30.4133 195.421 333.317 4355.96
855000 0 0 -33.7369 -33.7369 195.821 333.484 4368.73
856000 0 0 -26.4445 -26.4445 196.221 333.883 4381.19
857000 0 0 -30.5159 -30.5159 196.621 334.008 4392.49
858000 0 0 -31.2652 -31.2652 197.021 334.903 4404.17
859000 0 0 -30.6557 -30.6557 197.421 335.108 4416.16
860000 0 0 -27.4797 -27.4797 197.821 335.402 4428.27
861000 0 0 -29.8119 -29.8119 198.221 335.45 4439.84
862000 0 0 -28.8374 -28.8374 198.621 335.948 4451.31
863000 0 0 -26.2235 -26.2235 199.021 336.382 4461.4
864000 0 0 -29.4757 -29.4757 199.421 336.292 4473.03
865000 0 0 -26.1289 -26.1289 199.821 336.809 4483.78
866000 0 0 -33.4125 -33.4125 200.221 336.878 4496.06
867000 0 0 -25.2464 -25.2464 200.621 337.487 4507.93
868000 0 0 -24.8608 -24.8608 201.021 338.096 4517.97
869000 0 0 -25.3439 -25.3439 201.421 338.454 4526.97
870000 0 0 -27.8124 -27.8124 201.821 339.09 4537.49
871000 0 0 -26.5895 -26.5895 202.221 340.045 4547.65
872000 0 0 -26.4974 -26.4974 202.621 340.682 4557.06
873000 0 0 -26.5401 -26.5401 203.021 341.163 4568.1
874000 0 0 -26.4533 -26.4533 203.421 341.794 4578.99
875000 0 0 -28.2228 -28.2228 203.821 342.514 4589.68
876000 0 0 -30.3025 -30.3025 204.221 342.709 4601.72
877000 0 0 -35.086 -35.086 204.621 342.962 4614.12
878000 0 0 -37.047 -37.047 205.021 343.378 4628.95
879000 0 0 -37.1628 -37.1628 205.421 343.434 4643.5
880000 0 0 -39.5527 -39.5527 205.821 343.536 4658.11
881000 0 0 -37.3491 -37.3491 206.221 344.399 4673.86
882000 0 0 -41.9822 -41.9822 206.621 344.361 4690.14
883000 0 0 -37.3875 -37.3875 207.021 344.732 4706.48
884000 0 0 -35.9151 -35.9151 207.421 344.995 4720.98
885000 0 0 -33.1523 -33.1523 207.821 345.244 4735.9
886000 0 0 -38.8472 -38.8472 208.221 345.594 4749.92
887000 0 0 -38.034 -38.034 208.621 345.571 4764.05
888000 0 0 -36.8471 -36.8471 209.021 345.905 4779.75
889000 0 0 -43.9256 -43.9256 209.421 345.976 4796.6
890000 0 0 -45.4157 -45.4157 209.821 346.409 4813.79
891000 0 0 -50.0127 -50.0127 210.221 346.643 4833.35
892000 0 0 -55.0516 -55.0516 210.621 347.051 4854.64
893000 0 0 -59.7979 -59.7979 211.021 347.31 4877.52
894000 0 0 -65.7002 -65.7002 211.421 347.732 4902.9
895000 0 0 -71.5082 -71.5082 211.821 347.735 4931
896000 0 0 -71.1626 -71.1626 212.221 347.842 4958.93
897000 0 0 -76.161 -76.161 212.621 347.872 4988.6
898000 0 0 -84.509 -84.509 213.021 347.461 5020.25
899000 0 0 -87.5559 -87.5559 213.421 347.626 5054.06
900000 0 0 -92.4825 -92.4825 213.821 347.712 5089.95
901000 0 0 -97.0242 -97.0242 214.221 347.68 5127.52
902000 0 0 -102.97 -102.97 214.621 347.581 5167.4
903000 0 0 -103.488 -103.488 215.021 347.104 5209.02
904000 0 0 -108.247 -108.247 215.421 347.175 5251.61
905000 0 0 -102.813 -102.813 215.821 348.221 5294.05
906000 0 0 -100.829 -100.829 216.221 349.6 5334.79
907000 0 0 -101.673 -101.673 216.621 350.28 5374.97
908000 0 0 -107.524 -107.524 217.021 350.384 5416.43
909000 0 0 -111.085 -111.085 217.421 350.803 5460.3
910000 0 0 -119.959 -119.959 217.821 351.6 5506.73
911000 0 0 -125.147 -125.147 218.221 352.743 5555.67
912000 0 0 -128.431 -128.431 218.621 352.581 5606.22
913000 0 0 -135.208 -135.208 219.021 352.774 5659.17
914000 0 0 -143.348 -143.348 219.421 353.276 5715.06
915000 0 0 -150.324 -150.324 219.821 353.299 5773.89
916000 0 0 -159.186 -159.186 220.221 353.151 5835.87
917000 0 0 -166.624 -166.624 220.621 353.669 5900.92
918000 0 0 -174.481 -174.481 221.021 354.261 5968.95
919000 0 0 -181.33 -181.33 221.421 354.272 6040.01
920000 0 0 -188.985 -188.985 221.821 354.421 6114.16
921000 0 0 -197.257 -197.257 222.221 354.413 6191.49
922000 0 0 -205.319 -205.319 222.621 354.64 6271.95
923000 0 0 -213.31 -213.31 223.021 355.113 6355.51
924000 0 0 -220.971 -220.971 223.421 355.164 6442.18
925000 0 0 -228.41 -228.41 223.821 355.31 6531.99
926000 0 0 -236.351 -236.351 224.221 355.824 6624.97
927000 0 0 -244.666 -244.666 224.621 355.504 6721.1
928000 0 0 -251.767 -251.767 225.021 356.124 6820.4
929000 0 0 -259.352 -259.352 225.421 356.009 6922.81
930000 0 0 -267.976 -267.976 225.821 356.11 7028.45
931000 0 0 -276.302 -276.302 226.221 356.097 7137.25
932000 0 0 -283.599 -283.599 226.621 355.913 7249.16
933000 0 0 -291.52 -291.52 227.021 355.9 7364.25
934000 0 0 -300.126 -300.126 227.421 355.945 7482.52
935000 0 0 -307.495 -307.495 227.821 355.468 7603.99
936000 0 0 -315.011 -315.011 228.221 355.354 7728.6
937000 0 0 -323.202 -323.202 228.621 355.603 7856.4
938000 0 0 -331.068 -331.068 229.021 355.191 7987.3
939000 0 0 -339.254 -339.254 229.421 355.575 8121.41
940000 0 0 -347.068 -347.068 229.821 355.766 8258.7
941000 0 0 -354.773 -354.773 230.221 355.908 8399.17
942000 0 0 -363.248 -363.248 230.621 355.346 8542.76
943000 0 0 -371.119 -371.119 231.021 355.497 8689.54
944000 0 0 -378.767 -378.767 231.421 355.272 8839.49
945000 0 0 -387.376 -387.376 231.821 354.874 8992.59
946000 0 0 -394.874 -394.874 232.221 354.915 9148.88
947000 0 0 -402.103 -402.103 232.621 354.81 9308.35
948000 0 0 -410.532 -410.532 233.021 354.917 9470.98
949000 0 0 -418.778 -418.778 233.421 355.285 9636.81
950000 0 0 -426.676 -426.676 233.821 355.664 9805.83
951000 0 0 -434.59 -434.59 234.221 356.165 9978.01
952000 0 0 -442.076 -442.076 234.621 356.218 10153.4
953000 0 0 -450.369 -450.369 235.021 356.515 10331.9
954000 0 0 -458.428 -458.428 235.421 357.064 10513.6
955000 0 0 -466.233 -466.233 235.821 357.424 10698.5
956000 0 0 -473.947 -473.947 236.221 356.995 10886.5
957000 0 0 -482.068 -482.068 236.621 357.132 11077.8
958000 0 0 -489.776 -489.776 237.021 356.815 11272.2
959000 0 0 -497.891 -497.891 237.421 357.023 11469.8
960000 0 0 -505.942 -505.942 237.821 356.814 11670.6
961000 0 0 -513.443 -513.443 238.221 357.115 11874.6
962000 0 0 -521.555 -521.555 238.621 357.562 12081.7
963000 0 0 -529.963 -529.963 239.021 357.644 12292.1
964000 0 0 -537.614 -537.614 239.421 357.873 12505.6
965000 0 0 -545.749 -545.749 239.821 357.985 12722.3
966000 0 0 -553.881 -553.881 240.221 358.229 12942.2
967000 0 0 -562.139 -562.139 240.621 358.174 13165.2
968000 0 0 -569.485 -569.485 241.021 358.463 13391.5
969000 0 0 -577.16 -577.16 241.421 358.851 13620.9
970000 0 0 -585.108 -585.108 241.821 358.653 13853.5
971000 0 0 -593.327 -593.327 242.221 358.318 14089.4
972000 0 0 -601.242 -601.242 242.621 358.146 14328.4
973000 0 0 -608.917 -608.917 243.021 358.13 14570.5
974000 0 0 -617.733 -617.733 243.421 358.4 14815.9
975000 0 0 -625.281 -625.281 243.821 358.327 15064.4
976000 0 0 -633.519 -633.519 244.221 358.017 15316.2
977000 0 0 -641.54 -641.54 244.621 358.25 15571.1
978000 0 0 -649.088 -649.088 245.021 358.719 15829.2
979000 0 0 -657.129 -657.129 245.421 359.018 16090.5
980000 0 0 -664.918 -664.918 245.821 359.477 16355
981000 0 0 -673.181 -673.181 246.221 359.987 16622.6
982000 0 0 -681.434 -681.434 246.621 360.267 16893.5
983000 0 0 -689.294 -689.294 247.021 361.104 17167.5
984000 0 0 -696.755 -696.755 247.421 361.194 17444.7
985000 0 0 -704.885 -704.885 247.821 361.433 17725.1
986000 0 0 -712.764 -712.764 248.221 361.638 18008.7
987000 0 0 -720.909 -720.909 248.621 361.826 18295.5
988000 0 0 -728.843 -728.843 249.021 361.983 18585.5
989000 0 0 -736.89 -736.89 249.421 362.254 18878.6
990000 0 0 -744.626 -744.626 249.821 362.141 19174.9
991000 0 0 -753.158 -753.158 250.221 361.699 19474.5
992000 0 0 -760.812 -760.812 250.621 362.123 19777.2
993000 0 0 -768.55 -768.55 251.021 362.282 20083.1
994000 0 0 -776.741 -776.741 251.421 362.029 20392.2
995000 0 0 -784.802 -784.802 251.821 362.084 20704.5
996000 0 0 -793.006 -793.006 252.221 361.829 21019.9
997000 0 0 -800.473 -800.473 252.621 361.625 21338.6
998000 0 0 -808.675 -808.675 253.021 361.983 21660.4
999000 0 0 -816.439 -816.439 253.421 361.884 21985.5
1000000 0 0 -824.616 -824.616 253.821 362.236 22313.7
1001000 0 0 -832.487 -832.487 254.221 362.332 22645.1
1002000 0 0 -840.49 -840.49 254.621 362.05 22979.7
1003000 0 0 -848.125 -848.125 255.021 361.801 23317.5
1004000 0 0 -856.71 -856.71 255.421 362.056 23658.5
1005000 0 0 -864.633 -864.633 255.821 362.076 24002.6
1006000 0 0 -872.655 -872.655 256.221 362.014 24350
1007000 0 0 -880.375 -880.375 256.621 362.173 24700.5
1008000 0 0 -888.424 -888.424 257.021 362.373 25054.3
1009000 0 0 -896.31 -896.31 257.421 362.56 25411.2
1010000 0 0 -904.347 -904.347 257.821 362.812 25771.3
1011000 0 0 -911.832 -911.832 258.221 363.032 26134.7
1012000 0 0 -920.31 -920.31 258.621 362.797 26501.2
1013000 0 0 -927.985 -927.985 259.021 363.07 26870.9
1014000 0 0 -936.308 -936.308 259.421 363.283 27243.7
1015000 0 0 -944.199 -944.199 259.821 363.1 27619.8
1016000 0 0 -952.569 -952.569 260.221 363.344 27999.1
1017000 0 0 -960.124 -960.124 260.621 363.173 28381.5
1018000 0 0 -968.207 -968.207 261.021 363.333 28767.2
1019000 0 0 -976.3 -976.3 261.421 363.136 29156
1020000 0 0 -984.101 -984.101 261.821 363.199 29548
1021000 0 0 -991.976 -991.976 262.221 363.553 29943.3
1022000 0 0 -999.824 -999.824 262.621 363.984 30341.7
1023000 0 0 -1007.88 -1007.88 263.021 364.665 30743.3
1024000 0 0 -1016.04 -1016.04 263.421 364.952 31148.1
1025000 0 0 -1023.92 -1023.92 263.821 365.593 31556
1026000 0 0 -1032.05 -1032.05 264.221 365.547 31967.2
1027000 0 0 -1039.98 -1039.98 264.621 365.232 32381.6
1028000 0 0 -1047.49 -1047.49 265.021 365.268 32799.2
1029000 0 0 -1055.91 -1055.91 265.421 365.315 33219.9
1030000 0 0 -1063.99 -1063.99 265.821 365.794 33643.8
1031000 0 0 -1071.76 -1071.76 266.221 366.099 34071
1032000 0 0 -1080.05 -1080.05 266.621 365.908 34501.3
1033000 0 0 -1087.71 -1087.71 267.021 366.044 34934.8
1034000 0 0 -1095.61 -1095.61 267.421 366.29 35371.5
1035000 0 0 -1104.07 -1104.07 267.821 366.491 35811.5
1036000 0 0 -1111.65 -1111.65 268.221 366.197 36254.5
1037000 0 0 -1119.45 -1119.45 268.621 365.967 36700.8
1038000 0 0 -1127.8 -1127.8 269.021 366.267 37150.3
1039000 0 0 -1135.61 -1135.61 269.421 366.825 37603
1040000 0 0 -1143.75 -1143.75 269.821 367.33 38058.8
1041000 0 0 -1151.52 -1151.52 270.221 367.367 38517.9
1042000 0 0 -1159.53 -1159.53 270.621 367.995 38980.1
1043000 0 0 -1167.25 -1167.25 271.021 368.236 39445.6
1044000 0 0 -1175.72 -1175.72 271.421 367.846 39914.2
1045000 0 0 -1183.6 -1183.6 271.821 367.811 40386
1046000 0 0 -1191.73 -1191.73 272.221 368.17 40861.1
1047000 0 0 -1199.57 -1199.57 272.621 368.688 41339.3
1048000 0 0 -1207.48 -1207.48 273.021 368.526 41820.7
1049000 0 0 -1215.4 -1215.4 273.421 368.947 42305.3
1050000 0 0 -1223.52 -1223.52 273.821 369.154 42793
1051000 0 0 -1231.32 -1231.32 274.221 368.826 43284
1052000 0 0 -1239.36 -1239.36 274.621 368.797 43778.2
1053000 0 0 -1247.57 -1247.57 275.021 368.746 44275.6
1054000 0 0 -1255.05 -1255.05 275.421 368.391 44776.1
1055000 0 0 -1263.58 -1263.58 275.821 367.996 45279.9
1056000 0 0 -1271.46 -1271.46 276.221 368.033 45786.8
1057000 0 0 -1279.39 -1279.39 276.621 367.545 46297
1058000 0 0 -1287.25 -1287.25 277.021 368.007 46810.3
1059000 0 0 -1295.28 -1295.28 277.421 368.921 47326.8
1060000 0 0 -1303.68 -1303.68 277.821 369.075 47846.5
1061000 0 0 -1311.38 -1311.38 278.221 369.012 48369.4
1062000 0 0 -1319.55 -1319.55 278.621 369.275 48895.5
1063000 0 0 -1327.42 -1327.42 279.021 369.217 49424.8
1064000 0 0 -1335.11 -1335.11 279.421 369.357 49957.3
1065000 0 0 -1343.18 -1343.18 279.821 368.988 50493
1066000 0 0 -1351.23 -1351.23 280.221 369.394 51031.9
1067000 0 0 -1358.91 -1358.91 280.621 369.717 51574
1068000 0 0 -1366.82 -1366.82 281.021 369.824 52119.2
1069000 0 0 -1375.03 -1375.03 281.421 370.35 52667.7
1070000 0 0 -1383.09 -1383.09 281.821 370.541 53219.3
1071000 0 0 -1391.03 -1391.03 282.221 371.287 53774.2
1072000 0 0 -1399.35 -1399.35 282.621 371.803 54332.2
1073000 0 0 -1406.79 -1406.79 283.021 372.104 54893.5
1074000 0 0 -1415.28 -1415.28 283.421 371.925 55457.9
1075000 0 0 -1423.01 -1423.01 283.821 372.273 56025.5
1076000 0 0 -1430.88 -1430.88 284.221 372.847 56596.3
1077000 0 0 -1438.88 -1438.88 284.621 373.478 57170.4
1078000 0 0 -1446.59 -1446.59 285.021 374.06 57747.6
1079000 0 0 -1454.78 -1454.78 285.421 373.982 58328
1080000 0 0 -1463.27 -1463.27 285.821 374.426 58911.6
1081000 0 0 -1471.07 -1471.07 286.221 374.556 59498.4
1082000 0 0 -1478.98 -1478.98 286.621 374.591 60088.3
1083000 0 0 -1486.93 -1486.93 287.021 374.472 60681.5
1084000 0 0 -1494.86 -1494.86 287.421 374.133 61277.9
1085000 0 0 -1502.84 -1502.84 287.821 373.651 61877.5
1086000 0 0 -1511.14 -1511.14 288.221 373.754 62480.2
1087000 0 0 -1518.63 -1518.63 288.621 373.619 63086.2
1088000 0 0 -1527.07 -1527.07 289.021 373.01 63695.3
1089000 0 0 -1534.99 -1534.99 289.421 372.846 64307.7
1090000 0 0 -1542.69 -1542.69 289.821 372.898 64923.2
1091000 0 0 -1550.96 -1550.96 290.221 372.893 65541.9
1092000 0 0 -1558.93 -1558.93 290.621 373.424 66163.9
1093000 0 0 -1566.8 -1566.8 291.021 373.655 66789
1094000 0 0 -1574.8 -1574.8 291.421 373.106 67417.3
1095000 0 0 -1582.59 -1582.59 291.821 373.243 68048.8
1096000 0 0 -1590.61 -1590.61 292.221 373.38 68683.5
1097000 0 0 -1598.61 -1598.61 292.621 373.222 69321.4
1098000 0 0 -1606.67 -1606.67 293.021 373.393 69962.5
1099000 0 0 -1614.73 -1614.73 293.421 373.164 70606.8
1100000 0 0 -1622.83 -1622.83 293.821 373.003 71254.3
1101000 0 0 -1630.83 -1630.83 294.221 373.147 71904.9
1102000 0 0 -1638.69 -1638.69 294.621 373.393 72558.8
1103000 0 0 -1646.6 -1646.6 295.021 373.599 73215.9
1104000 0 0 -1654.67 -1654.67 295.421 373.488 73876.1
1105000 0 0 -1662.74 -1662.74 295.821 373.736 74539.6
1106000 0 0 -1670.85 -1670.85 296.221 373.266 75206.2
1107000 0 0 -1678.53 -1678.53 296.621 373.152 75876.1
1108000 0 0 -1686.51 -1686.51 297.021 373.346 76549.1
1109000 0 0 -1694.47 -1694.47 297.421 373.406 77225.4
1110000 0 0 -1702.58 -1702.58 297.821 373.017 77904.8
1111000 0 0 -1710.44 -1710.44 298.221 372.77 78587.4
1112000 0 0 -1718.74 -1718.74 298.621 372.707 79273.2
1113000 0 0 -1726.52 -1726.52 299.021 373.289 79962.3
1114000 0 0 -1734.63 -1734.63 299.421 372.983 80654.5
1115000 0 0 -1742.44 -1742.44 299.821 373.042 81349.9
1116000 0 0 -1750.7 -1750.7 300.221 373.312 82048.5
1117000 0 0 -1758.54 -1758.54 300.621 373.418 82750.3
1118000 0 0 -1766.49 -1766.49 301.021 373.246 83455.3
1119000 0 0 -1774.3 -1774.3 301.421 373.071 84163.5
1120000 0 0 -1782.52 -1782.52 301.821 373.347 84874.8
1121000 0 0 -1790.35 -1790.35 302.221 373.505 85589.4
1122000 0 0 -1798.37 -1798.37 302.621 373.69 86307.2
1123000 0 0 -1806.4 -1806.4 303.021 373.687 87028.2
1124000 0 0 -1814.33 -1814.33 303.421 373.688 87752.3
1125000 0 0 -1822.3 -1822.3 303.821 373.632 88479.7
1126000 0 0 -1830.4 -1830.4 304.221 374.019 89210.2
1127000 0 0 -1838.32 -1838.32 304.621 373.934 89944
1128000 0 0 -1846.41 -1846.41 305.021 373.939 90680.9
1129000 0 0 -1854.47 -1854.47 305.421 374.35 91421.1
1130000 0 0 -1862.45 -1862.45 305.821 374.664 92164.4
1131000 0 0 -1870.38 -1870.38 306.221 374.384 92911
1132000 0 0 -1878.35 -1878.35 306.621 374.471 93660.7
1133000 0 0 -1886.32 -1886.32 307.021 374.592 94413.6
1134000 0 0 -1894.29 -1894.29 307.421 374.34 95169.7
1135000 0 0 -1902.23 -1902.23 307.821 374.343 95929
1136000 0 0 -1910.1 -1910.1 308.221 373.768 96691.6
1137000 0 0 -1918.13 -1918.13 308.621 373.862 97457.3
1138000 0 0 -1926.42 -1926.42 309.021 373.9 98226.2
1139000 0 0 -1934.2 -1934.2 309.421 373.807 98998.3
1140000 0 0 -1941.98 -1941.98 309.821 374.413 99773.5
1141000 0 0 -1950.05 -1950.05 310.221 373.881 100552
1142000 0 0 -1958.12 -1958.12 310.621 373.559 101334
1143000 0 0 -1966.15 -1966.15 311.021 373.748 102119
1144000 0 0 -1974.01 -1974.01 311.421 373.74 102907
1145000 0 0 -1982.34 -1982.34 311.821 373.727 103698
1146000 0 0 -1990.19 -1990.19 312.221 373.977 104492
1147000 0 0 -1998.21 -1998.21 312.621 373.948 105290
1148000 0 0 -2006.22 -2006.22 313.021 373.521 106091
1149000 0 0 -2013.93 -2013.93 313.421 373.56 106895
1150000 0 0 -2022.25 -2022.25 313.821 373.914 107702
1151000 0 0 -2030.16 -2030.16 314.221 373.672 108513
1152000 0 0 -2038.17 -2038.17 314.621 374.019 109326
1153000 0 0 -2046.17 -2046.17 315.021 374.196 110143
1154000 0 0 -2054.09 -2054.09 315.421 374.708 110963
1155000 0 0 -2062.05 -2062.05 315.821 375.382 111786
1156000 0 0 -2070.07 -2070.07 316.221 375.402 112613
1157000 0 0 -2078.13 -2078.13 316.621 374.862 113442
1158000 0 0 -2086.22 -2086.22 317.021 375.144 114275
1159000 0 0 -2094.19 -2094.19 317.421 375.265 115111
1160000 0 0 -2101.95 -2101.95 317.821 375.658 115951
1161000 0 0 -2109.96 -2109.96 318.221 376.375 116793
1162000 0 0 -2117.97 -2117.97 318.621 376.525 117639
1163000 0 0 -2126.06 -2126.06 319.021 376.282 118487
1164000 0 0 -2133.94 -2133.94 319.421 375.609 119339
1165000 0 0 -2142.02 -2142.02 319.821 375.216 120194
1166000 0 0 -2150.08 -2150.08 320.221 375.441 121053
1167000 0 0 -2157.61 -2157.61 320.621 375.941 121914
1168000 0 0 -2165.75 -2165.75 321.021 376.054 122779
1169000 0 0 -2174.06 -2174.06 321.421 375.554 123647
1170000 0 0 -2182.01 -2182.01 321.821 375.303 124518
1171000 0 0 -2189.95 -2189.95 322.221 375.315 125393
1172000 0 0 -2197.9 -2197.9 322.621 375.204 126270
1173000 0 0 -2206.12 -2206.12 323.021 374.791 127151
1174000 0 0 -2213.82 -2213.82 323.421 374.675 128035
1175000 0 0 -2221.82 -2221.82 323.821 374.812 128922
1176000 0 0 -2229.64 -2229.64 324.221 374.752 129813
1177000 0 0 -2237.88 -2237.88 324.621 374.941 130706
1178000 0 0 -2245.7 -2245.7 325.021 374.981 131603
1179000 0 0 -2253.72 -2253.72 325.421 375.227 132503
1180000 0 0 -2261.87 -2261.87 325.821 375.491 133406
1181000 0 0 -2269.54 -2269.54 326.221 376.009 134312
1182000 0 0 -2277.65 -2277.65 326.621 376.047 135222
1183000 0 0 -2286.04 -2286.04 327.021 375.943 136134
1184000 0 0 -2293.83 -2293.83 327.421 376.319 137050
1185000 0 0 -2301.85 -2301.85 327.821 376.126 137969
1186000 0 0 -2309.64 -2309.64 328.221 376.068 138892
1187000 0 0 -2317.68 -2317.68 328.621 376.066 139817
1188000 0 0 -2325.58 -2325.58 329.021 376.358 140746
1189000 0 0 -2333.81 -2333.81 329.421 376.251 141678
1190000 0 0 -2341.75 -2341.75 329.821 375.928 142613
1191000 0 0 -2349.74 -2349.74 330.221 376.336 143551
1192000 0 0 -2357.82 -2357.82 330.621 376.517 144493
1193000 0 0 -2365.59 -2365.59 331.021 376.612 145437
1194000 0 0 -2373.43 -2373.43 331.421 376.656 146385
1195000 0 0 -2381.63 -2381.63 331.821 377.526 147336
1196000 0 0 -2389.62 -2389.62 332.221 377.878 148291
1197000 0 0 -2397.78 -2397.78 332.621 377.983 149248
1198000 0 0 -2405.71 -2405.71 333.021 377.729 150209
1199000 0 0 -2413.47 -2413.47 333.421 377.912 151173
1200000 0 0 -2421.71 -2421.71 333.821 378.203 152140
1201000 0 0 -2429.59 -2429.59 334.221 378.337 153110
1202000 0 0 -2437.73 -2437.73 334.621 378.551 154083
1203000 0 0 -2445.7 -2445.7 335.021 378.424 155060
1204000 0 0 -2453.45 -2453.45 335.421 378.344 156040
1205000 0 0 -2461.71 -2461.71 335.821 378.27 157023
1206000 0 0 -2469.64 -2469.64 336.221 377.881 158009
1207000 0 0 -2477.68 -2477.68 336.621 378.133 158999
1208000 0 0 -2485.49 -2485.49 337.021 378.319 159991
1209000 0 0 -2493.55 -2493.55 337.421 378.318 160987
1210000 0 0 -2501.56 -2501.56 337.821 378.178 161986
1211000 0 0 -2509.47 -2509.47 338.221 378.352 162988
1212000 0 0 -2517.41 -2517.41 338.621 378.066 163994
1213000 0 0 -2525.66 -2525.66 339.021 378.042 165002
1214000 0 0 -2533.35 -2533.35 339.421 377.708 166014
1215000 0 0 -2541.53 -2541.53 339.821 377.562 167029
1216000 0 0 -2549.6 -2549.6 340.221 377.472 168048
1217000 0 0 -2557.74 -2557.74 340.621 377.448 169069
1218000 0 0 -2565.57 -2565.57 341.021 377.635 170094
1219000 0 0 -2573.52 -2573.52 341.421 377.49 171121
1220000 0 0 -2581.39 -2581.39 341.821 377.829 172152
1221000 0 0 -2589.42 -2589.42 342.221 377.332 173187
1222000 0 0 -2597.37 -2597.37 342.621 377.499 174224
1223000 0 0 -2605.36 -2605.36 343.021 377.206 175264
1224000 0 0 -2613.63 -2613.63 343.421 376.802 176308
1225000 0 0 -2621.41 -2621.41 343.821 376.602 177355
1226000 0 0 -2629.54 -2629.54 344.221 376.407 178405
1227000 0 0 -2637.37 -2637.37 344.621 376.418 179459
1228000 0 0 -2645.33 -2645.33 345.021 376.128 180515
1229000 0 0 -2653.31 -2653.31 345.421 376.272 181575
1230000 0 0 -2661.45 -2661.45 345.821 376.75 182638
1231000 0 0 -2669.43 -2669.43 346.221 376.503 183704
1232000 0 0 -2677.41 -2677.41 346.621 376.442 184774
1233000 0 0 -2685.24 -2685.24 347.021 376.612 185846
1234000 0 0 -2693.49 -2693.49 347.421 376.625 186922
1235000 0 0 -2701.23 -2701.23 347.821 376.557 188001
1236000 0 0 -2709.45 -2709.45 348.221 376.915 189083
1237000 0 0 -2717.34 -2717.34 348.621 376.742 190168
1238000 0 0 -2725.36 -2725.36 349.021 377.174 191257
1239000 0 0 -2733.27 -2733.27 349.421 377.129 192349
1240000 0 0 -2741.39 -2741.39 349.821 377.78 193444
1241000 0 0 -2749.35 -2749.35 350.221 377.789 194542
1242000 0 0 -2757.26 -2757.26 350.621 378.068 195643
1243000 0 0 -2765.4 -2765.4 351.021 377.887 196748
1244000 0 0 -2773.21 -2773.21 351.421 377.265 197855
1245000 0 0 -2781.37 -2781.37 351.821 377.052 198966
1246000 0 0 -2789.12 -2789.12 352.221 376.555 200080
1247000 0 0 -2797.15 -2797.15 352.621 376.5 201198
1248000 0 0 -2804.93 -2804.93 353.021 376.862 202318
1249000 0 0 -2813.46 -2813.46 353.421 377.16 203442
1250000 0 0 -2821.06 -2821.06 353.821 377.249 204569
1251000 0 0 -2829.39 -2829.39 354.221 377.431 205699
1252000 0 0 -2837.2 -2837.2 354.621 377.704 206832
1253000 0 0 -2845.38 -2845.38 355.021 377.879 207969
1254000 0 0 -2853.24 -2853.24 355.421 378.003 209108
1255000 0 0 -2861.24 -2861.24 355.821 378.494 210251
1256000 0 0 -2869.06 -2869.06 356.221 378.366 211397
1257000 0 0 -2876.87 -2876.87 356.621 378.713 212547
1258000 0 0 -2885.12 -2885.12 357.021 378.718 213699
1259000 0 0 -2893.38 -2893.38 357.421 378.087 214855
1260000 0 0 -2901.27 -2901.27 357.821 377.924 216014
1261000 0 0 -2909.26 -2909.26 358.221 378.497 217176
1262000 0 0 -2916.95 -2916.95 358.621 378.562 218341
1263000 0 0 -2925.19 -2925.19 359.021 378.695 219509
1264000 0 0 -2933.09 -2933.09 359.421 378.237 220681
1265000 0 0 -2941 -2941 359.821 378.319 221856
1266000 0 0 -2949.01 -2949.01 360.221 378.508 223034
1267000 0 0 -2957.05 -2957.05 360.621 378.658 224215
1268000 0 0 -2965.21 -2965.21 361.021 378.639 225400
1269000 0 0 -2973.09 -2973.09 361.421 378.33 226587
1270000 0 0 -2981.25 -2981.25 361.821 378.085 227778
1271000 0 0 -2989.09 -2989.09 362.221 378.57 228972
1272000 0 0 -2997.1 -2997.1 362.621 378.115 230170
1273000 0 0 -3005.01 -3005.01 363.021 378.278 231370
1274000 0 0 -3013.24 -3013.24 363.421 378.652 232574
1275000 0 0 -3021.07 -3021.07 363.821 379.018 233780
1276000 0 0 -3028.98 -3028.98 364.221 378.693 234990
1277000 0 0 -3036.99 -3036.99 364.621 378.369 236204
1278000 0 0 -3045 -3045 365.021 378.184 237420
1279000 0 0 -3053.21 -3053.21 365.421 378.121 238640
1280000 0 0 -3061.16 -3061.16 365.821 377.869 239863
1281000 0 0 -3069.06 -3069.06 366.221 377.318 241089
1282000 0 0 -3076.93 -3076.93 366.621 377.684 242318
1283000 0 0 -3084.84 -3084.84 367.021 377.569 243550
1284000 0 0 -3093.18 -3093.18 367.421 377.84 244786
1285000 0 0 -3101.04 -3101.04 367.821 377.636 246025
1286000 0 0 -3108.94 -3108.94 368.221 377.874 247267
1287000 0 0 -3116.91 -3116.91 368.621 378.06 248512
1288000 0 0 -3125.02 -3125.02 369.021 378.724 249760
1289000 0 0 -3133 -3133 369.421 378.775 251012
1290000 0 0 -3140.93 -3140.93 369.821 378.838 252267
1291000 0 0 -3148.78 -3148.78 370.221 379.066 253525
1292000 0 0 -3156.79 -3156.79 370.621 379.704 254786
1293000 0 0 -3164.94 -3164.94 371.021 379.406 256050
1294000 0 0 -3172.95 -3172.95 371.421 379.204 257318
1295000 0 0 -3180.71 -3180.71 371.821 379.656 258589
1296000 0 0 -3188.91 -3188.91 372.221 380.107 259862
1297000 0 0 -3196.98 -3196.98 372.621 380.564 261140
1298000 0 0 -3204.9 -3204.9 373.021 380.601 262420
1299000 0 0 -3212.83 -3212.83 373.421 380.071 263704
1300000 0 0 -3221.04 -3221.04 373.821 380.096 264990
1301000 0 0 -3229.06 -3229.06 374.221 380.078 266280
1302000 0 0 -3236.86 -3236.86 374.621 380.477 267574
1303000 0 0 -3244.76 -3244.76 375.021 380.355 268870
1304000 0 0 -3253.06 -3253.06 375.421 380.483 270169
1305000 0 0 -3260.94 -3260.94 375.821 380.299 271472
1306000 0 0 -3268.86 -3268.86 376.221 380.133 272778
1307000 0 0 -3276.86 -3276.86 376.621 380.319 274087
1308000 0 0 -3284.91 -3284.91 377.021 379.774 275400
1309000 0 0 -3292.89 -3292.89 377.421 379.958 276715
1310000 0 0 -3300.82 -3300.82 377.821 380.445 278034
1311000 0 0 -3308.98 -3308.98 378.221 380.15 279356
1312000 0 0 -3316.84 -3316.84 378.621 380.431 280681
1313000 0 0 -3324.78 -3324.78 379.021 380.72 282009
1314000 0 0 -3332.73 -3332.73 379.421 380.687 283341
1315000 0 0 -3340.86 -3340.86 379.821 380.047 284676
1316000 0 0 -3348.7 -3348.7 380.221 379.247 286014
1317000 0 0 -3356.88 -3356.88 380.621 379.176 287355
1318000 0 0 -3364.69 -3364.69 381.021 378.601 288699
1319000 0 0 -3372.89 -3372.89 381.421 378.587 290046
1320000 0 0 -3380.81 -3380.81 381.821 378.455 291397
1321000 0 0 -3388.74 -3388.74 382.221 378.372 292751
1322000 0 0 -3396.88 -3396.88 382.621 378.664 294108
1323000 0 0 -3404.67 -3404.67 383.021 378.43 295469
1324000 0 0 -3412.61 -3412.61 383.421 378.329 296832
1325000 0 0 -3420.8 -3420.8 383.821 378.29 298199
1326000 0 0 -3428.73 -3428.73 384.221 378.338 299569
1327000 0 0 -3436.68 -3436.68 384.621 377.978 300942
1328000 0 0 -3444.79 -3444.79 385.021 378.105 302318
1329000 0 0 -3452.7 -3452.7 385.421 377.959 303698
1330000 0 0 -3460.5 -3460.5 385.821 378.033 305080
1331000 0 0 -3468.89 -3468.89 386.221 378.056 306466
1332000 0 0 -3476.82 -3476.82 386.621 377.921 307855
1333000 0 0 -3484.76 -3484.76 387.021 377.8 309248
1334000 0 0 -3492.63 -3492.63 387.421 377.634 310643
1335000 0 0 -3500.63 -3500.63 387.821 378.095 312042
1336000 0 0 -3508.63 -3508.63 388.221 377.986 313444
1337000 0 0 -3516.64 -3516.64 388.621 377.425 314849
1338000 0 0 -3524.59 -3524.59 389.021 377.223 316257
1339000 0 0 -3532.76 -3532.76 389.421 377.136 317668
1340000 0 0 -3540.89 -3540.89 389.821 376.788 319083
1341000 0 0 -3548.83 -3548.83 390.221 377.052 320501
1342000 0 0 -3556.57 -3556.57 390.621 376.967 321922
1343000 0 0 -3564.67 -3564.67 391.021 376.771 323346
1344000 0 0 -3572.68 -3572.68 391.421 376.305 324774
1345000 0 0 -3580.67 -3580.67 391.821 375.79 326204
1346000 0 0 -3588.58 -3588.58 392.221 375.837 327638
1347000 0 0 -3596.59 -3596.59 392.621 375.736 329075
1348000 0 0 -3604.73 -3604.73 393.021 375.003 330516
1349000 0 0 -3612.57 -3612.57 393.421 374.998 331959
1350000 0 0 -3620.73 -3620.73 393.821 375.161 333406
1351000 0 0 -3628.73 -3628.73 394.221 375.268 334855
1352000 0 0 -3636.69 -3636.69 394.621 375.858 336309
1353000 0 0 -3644.58 -3644.58 395.021 376.228 337765
1354000 0 0 -3652.67 -3652.67 395.421 375.927 339224
1355000 0 0 -3660.6 -3660.6 395.821 376.195 340687
1356000 0 0 -3668.54 -3668.54 396.221 376.127 342153
1357000 0 0 -3676.65 -3676.65 396.621 376.176 343622
1358000 0 0 -3684.5 -3684.5 397.021 376.252 345094
1359000 0 0 -3692.64 -3692.64 397.421 376.381 346569
1360000 0 0 -3700.64 -3700.64 397.821 376.693 348048
1361000 0 0 -3708.53 -3708.53 398.221 376.773 349530
1362000 0 0 -3716.45 -3716.45 398.621 376.647 351015
1363000 0 0 -3724.64 -3724.64 399.021 376.602 352503
1364000 0 0 -3732.57 -3732.57 399.421 376.902 353994
1365000 0 0 -3740.56 -3740.56 399.821 377.293 355489
1366000 0 0 -3748.61 -3748.61 400.221 377.137 356987
1367000 0 0 -3756.25 -3756.25 400.621 377.424 358488
1368000 0 0 -3764.64 -3764.64 401.021 377.591 359992
1369000 0 0 -3772.55 -3772.55 401.421 378.069 361500
1370000 0 0 -3780.44 -3780.44 401.821 378.093 363010
1371000 0 0 -3788.54 -3788.54 402.221 378.282 364524
1372000 0 0 -3796.42 -3796.42 402.621 378.548 366041
1373000 0 0 -3804.47 -3804.47 403.021 378.784 367561
1374000 0 0 -3812.53 -3812.53 403.421 379.271 369085
1375000 0 0 -3820.58 -3820.58 403.821 379.238 370611
1376000 0 0 -3828.49 -3828.49 404.221 379.101 372141
1377000 0 0 -3836.42 -3836.42 404.621 379.174 373674
1378000 0 0 -3844.5 -3844.5 405.021 379.03 375210
1379000 0 0 -3852.48 -3852.48 405.421 379.262 376750
1380000 0 0 -3860.47 -3860.47 405.821 379.377 378292
1381000 0 0 -3868.38 -3868.38 406.221 378.97 379838
1382000 0 0 -3876.43 -3876.43 406.621 378.641 381387
1383000 0 0 -3884.42 -3884.42 407.021 378.555 382939
1384000 0 0 -3892.26 -3892.26 407.421 378.852 384494
1385000 0 0 -3900.53 -3900.53 407.821 378.963 386053
1386000 0 0 -3908.39 -3908.39 408.221 378.925 387615
1387000 0 0 -3916.46 -3916.46 408.621 379.295 389180
1388000 0 0 -3924.33 -3924.33 409.021 379.444 390748
1389000 0 0 -3932.42 -3932.42 409.421 379.361 392319
1390000 0 0 -3940.37 -3940.37 409.821 379.58 393894
1391000 0 0 -3948.37 -3948.37 410.221 379.806 395472
1392000 0 0 -3956.47 -3956.47 410.621 379.798 397053
1393000 0 0 -3964.46 -3964.46 411.021 379.954 398637
1394000 0 0 -3972.4 -3972.4 411.421 379.957 400224
1395000 0 0 -3980.39 -3980.39 411.821 380.016 401815
1396000 0 0 -3988.34 -3988.34 412.221 380.001 403408
1397000 0 0 -3996.34 -3996.34 412.621 380.094 405005
1398000 0 0 -4004.35 -4004.35 413.021 379.894 406605
1399000 0 0 -4012.28 -4012.28 413.421 379.934 408209
1400000 0 0 -4020.32 -4020.32 413.821 379.938 409815
