# Chunk-averaged data for fix dens3 and group water
# Timestep Number-of-chunks Total-count
# Chunk Coord1 Ncount density/number
500000 143 39189
  1 -59 0 0
  2 -57 59.8 0.00137939
  3 -55 175 0.00403666
  4 -53 259.9 0.00599502
  5 -51 340.1 0.00784497
  6 -49 314.5 0.00725446
  7 -47 337.4 0.00778269
  8 -45 304 0.00701226
  9 -43 315.7 0.00728214
  10 -41 329.5 0.00760046
  11 -39 330.3 0.00761891
  12 -37 311.9 0.00719449
  13 -35 335.2 0.00773194
  14 -33 320.7 0.00739747
  15 -31 324.8 0.00749205
  16 -29 330.3 0.00761891
  17 -27 342.5 0.00790033
  18 -25 325.6 0.0075105
  19 -23 319.9 0.00737902
  20 -21 327.2 0.00754741
  21 -19 354 0.00816559
  22 -17 311.5 0.00718526
  23 -15 342.1 0.0078911
  24 -13 314.4 0.00725215
  25 -11 355.6 0.0082025
  26 -9 321.8 0.00742285
  27 -7 317.8 0.00733058
  28 -5 320.7 0.00739747
  29 -3 336.3 0.00775731
  30 -1 322.2 0.00743207
  31 1 322.3 0.00743438
  32 3 334.7 0.00772041
  33 5 324 0.00747359
  34 7 335.5 0.00773886
  35 9 313 0.00721986
  36 11 317.7 0.00732827
  37 13 320.6 0.00739517
  38 15 349.3 0.00805718
  39 17 315.1 0.0072683
  40 19 356.4 0.00822095
  41 21 303.8 0.00700765
  42 23 351.1 0.0080987
  43 25 300.2 0.00692461
  44 27 337.3 0.00778038
  45 29 331.1 0.00763737
  46 31 286.3 0.00660398
  47 33 268.5 0.00619339
  48 35 229.5 0.00529379
  49 37 185 0.00426733
  50 39 127.6 0.0029433
  51 41 97.9 0.00225822
  52 43 39.7 0.000915746
  53 45 25.1 0.000578973
  54 47 14.4 0.00033216
  55 49 3.2 7.38133e-05
  56 51 0 0
  57 53 0 0
  58 55 0 0
  59 57 0 0
  60 59 0 0
  61 61 0 0
  62 63 0 0
  63 65 2.2 5.07466e-05
  64 67 5.6 0.000129173
  65 69 20.8 0.000479786
  66 71 48 0.0011072
  67 73 64.7 0.00149241
  68 75 125.3 0.00289025
  69 77 160.2 0.00369528
  70 79 230.6 0.00531917
  71 81 253.3 0.00584278
  72 83 318.3 0.00734211
  73 85 322.1 0.00742977
  74 87 347.4 0.00801335
  75 89 358.2 0.00826247
  76 91 351.6 0.00811023
  77 93 356.8 0.00823018
  78 95 351.5 0.00810792
  79 97 340.7 0.00785881
  80 99 340.3 0.00784958
  81 101 319.1 0.00736057
  82 103 328.5 0.00757739
  83 105 317.7 0.00732827
  84 107 322.3 0.00743438
  85 109 308 0.00710453
  86 111 303.2 0.00699381
  87 113 323.3 0.00745745
  88 115 313.4 0.00722909
  89 117 310.7 0.00716681
  90 119 287.2 0.00662474
  91 121 321.4 0.00741362
  92 123 298.1 0.00687617
  93 125 299 0.00689693
  94 127 318 0.00733519
  95 129 285.4 0.00658322
  96 131 311.3 0.00718065
  97 133 291 0.00671239
  98 135 307.9 0.00710222
  99 137 291.6 0.00672623
  100 139 304.4 0.00702149
  101 141 301.9 0.00696382
  102 143 314 0.00724293
  103 145 319.5 0.00736979
  104 147 305.6 0.00704917
  105 149 320.5 0.00739286
  106 151 318 0.00733519
  107 153 334.2 0.00770887
  108 155 335.1 0.00772963
  109 157 338.1 0.00779883
  110 159 368.1 0.00849083
  111 161 336.7 0.00776654
  112 163 374.9 0.00864768
  113 165 343.7 0.00792801
  114 167 373.1 0.00860616
  115 169 365 0.00841932
  116 171 352.1 0.00812176
  117 173 358 0.00825786
  118 175 362.8 0.00836858
  119 177 374.4 0.00863615
  120 179 354.8 0.00818404
  121 181 353.3 0.00814944
  122 183 367.3 0.00847238
  123 185 375 0.00864999
  124 187 352.2 0.00812407
  125 189 386.7 0.00891987
  126 191 350.1 0.00807563
  127 193 375.6 0.00866383
  128 195 352.3 0.00812638
  129 197 365.7 0.00843547
  130 199 352.8 0.00813791
  131 201 371.6 0.00857156
  132 203 362.4 0.00835935
  133 205 370.8 0.00855311
  134 207 353.5 0.00815406
  135 209 362.3 0.00835704
  136 211 356.9 0.00823248
  137 213 364 0.00839626
  138 215 312.1 0.0071991
  139 217 276.7 0.00638254
  140 219 164.9 0.00380369
  141 221 57.3 0.00132172
  142 223 5.9 0.000136093
  143 225 0 0
600000 143 39189
  1 -59 0 0
  2 -57 98 0.00226053
  3 -55 217.4 0.00501469
  4 -53 318.9 0.00735595
  5 -51 315.4 0.00727522
  6 -49 331.4 0.00764429
  7 -47 329.7 0.00760507
  8 -45 324.2 0.00747821
  9 -43 335.4 0.00773655
  10 -41 323.2 0.00745514
  11 -39 327.3 0.00754971
  12 -37 324.6 0.00748743
  13 -35 336.1 0.0077527
  14 -33 305.7 0.00705147
  15 -31 329.9 0.00760969
  16 -29 324.5 0.00748513
  17 -27 343.4 0.00792109
  18 -25 335 0.00772733
  19 -23 323.5 0.00746206
  20 -21 339.4 0.00782882
  21 -19 333 0.00768119
  22 -17 327.4 0.00755202
  23 -15 339.4 0.00782882
  24 -13 327.8 0.00756125
  25 -11 333.2 0.00768581
  26 -9 318.6 0.00734903
  27 -7 308.9 0.00712529
  28 -5 333.8 0.00769965
  29 -3 313.7 0.00723601
  30 -1 315.3 0.00727291
  31 1 323 0.00745053
  32 3 311.3 0.00718065
  33 5 336.1 0.0077527
  34 7 334.9 0.00772502
  35 9 340.3 0.00784958
  36 11 311.6 0.00718757
  37 13 325.8 0.00751511
  38 15 323.9 0.00747129
  39 17 303.2 0.00699381
  40 19 308.1 0.00710683
  41 21 281 0.00648173
  42 23 274.1 0.00632257
  43 25 254.7 0.00587507
  44 27 238.3 0.00549678
  45 29 242.6 0.00559597
  46 31 210.5 0.00485553
  47 33 213.5 0.00492473
  48 35 193.2 0.00445648
  49 37 173.8 0.00400898
  50 39 157.1 0.00362377
  51 41 130.5 0.0030102
  52 43 124.2 0.00286488
  53 45 99.2 0.00228821
  54 47 88.4 0.00203909
  55 49 85.4 0.00196989
  56 51 77.4 0.00178536
  57 53 87.2 0.00201141
  58 55 49.9 0.00115103
  59 57 62.3 0.00143705
  60 59 29.5 0.000680466
  61 61 37 0.000853466
  62 63 30.4 0.000701226
  63 65 36.9 0.000851159
  64 67 38.9 0.000897292
  65 69 46.4 0.00107029
  66 71 57.2 0.00131941
  67 73 55.5 0.0012802
  68 75 85.9 0.00198142
  69 77 96.7 0.00223054
  70 79 117.7 0.00271494
  71 81 121 0.00279106
  72 83 143.7 0.00331468
  73 85 176.5 0.00407126
  74 87 206 0.00475173
  75 89 220.5 0.00508619
  76 91 223 0.00514386
  77 93 264.6 0.00610343
  78 95 254.7 0.00587507
  79 97 297.9 0.00687155
  80 99 272.5 0.00628566
  81 101 310.7 0.00716681
  82 103 301.8 0.00696151
  83 105 299.3 0.00690385
  84 107 328.1 0.00756817
  85 109 314 0.00724293
  86 111 316.1 0.00729137
  87 113 328.3 0.00757278
  88 115 315.8 0.00728445
  89 117 356.5 0.00822326
  90 119 330.3 0.00761891
  91 121 359.4 0.00829015
  92 123 351.2 0.008101
  93 125 359.1 0.00828323
  94 127 361.9 0.00834782
  95 129 362.3 0.00835704
  96 131 378.5 0.00873072
  97 133 347.3 0.00801104
  98 135 373.8 0.00862231
  99 137 360.9 0.00832475
  100 139 353.7 0.00815867
  101 141 375.9 0.00867075
  102 143 346.8 0.00799951
  103 145 380.7 0.00878147
  104 147 360 0.00830399
  105 149 378 0.00871919
  106 151 356.4 0.00822095
  107 153 352.2 0.00812407
  108 155 372.4 0.00859002
  109 157 357.7 0.00825094
  110 159 373.2 0.00860847
  111 161 346.9 0.00800182
  112 163 376.2 0.00867767
  113 165 355.6 0.0082025
  114 167 356.4 0.00822095
  115 169 371.2 0.00856234
  116 171 363.6 0.00838703
  117 173 377.4 0.00870535
  118 175 341 0.00786573
  119 177 368.7 0.00850467
  120 179 359.5 0.00829246
  121 181 370.1 0.00853696
  122 183 351.2 0.008101
  123 185 371.5 0.00856926
  124 187 345.4 0.00796722
  125 189 372.5 0.00859232
  126 191 354.1 0.0081679
  127 193 367.3 0.00847238
  128 195 359 0.00828092
  129 197 374.1 0.00862923
  130 199 355.1 0.00819096
  131 201 365.3 0.00842624
  132 203 351.1 0.0080987
  133 205 363.4 0.00838242
  134 207 360.7 0.00832014
  135 209 355 0.00818866
  136 211 350.3 0.00808024
  137 213 344.8 0.00795338
  138 215 323.1 0.00745283
  139 217 259.9 0.00599502
  140 219 149.5 0.00344846
  141 221 54.6 0.00125944
  142 223 4.1 9.45732e-05
  143 225 0 0
700000 143 39189
  1 -59 0 0
  2 -57 190.5 0.0043942
  3 -55 284 0.00655093
  4 -53 313.2 0.00722447
  5 -51 339.2 0.00782421
  6 -49 306.1 0.0070607
  7 -47 354.1 0.0081679
  8 -45 311 0.00717373
  9 -43 344 0.00793492
  10 -41 300.6 0.00693383
  11 -39 353.9 0.00816328
  12 -37 336 0.00775039
  13 -35 322 0.00742746
  14 -33 337.6 0.0077873
  15 -31 302.4 0.00697535
  16 -29 347.3 0.00801104
  17 -27 318 0.00733519
  18 -25 345.9 0.00797875
  19 -23 315.1 0.0072683
  20 -21 342.1 0.0078911
  21 -19 320.7 0.00739747
  22 -17 328.1 0.00756817
  23 -15 335.6 0.00774117
  24 -13 330.6 0.00762583
  25 -11 306.6 0.00707223
  26 -9 313.1 0.00722217
  27 -7 327.3 0.00754971
  28 -5 308.7 0.00712067
  29 -3 315.2 0.00727061
  30 -1 286.9 0.00661782
  31 1 289.9 0.00668702
  32 3 271 0.00625106
  33 5 271.1 0.00625337
  34 7 275.4 0.00635255
  35 9 279.2 0.00644021
  36 11 263 0.00606653
  37 13 268.5 0.00619339
  38 15 253.2 0.00584047
  39 17 243.2 0.00560981
  40 19 236.4 0.00545295
  41 21 238.1 0.00549217
  42 23 225.5 0.00520153
  43 25 229.1 0.00528457
  44 27 202.5 0.004671
  45 29 201.6 0.00465024
  46 31 197.5 0.00455566
  47 33 193.9 0.00447262
  48 35 202.9 0.00468022
  49 37 181.2 0.00417968
  50 39 203.9 0.00470329
  51 41 156.1 0.0036007
  52 43 177.1 0.0040851
  53 45 164.3 0.00378985
  54 47 144.3 0.00332852
  55 49 134.2 0.00309554
  56 51 131.3 0.00302865
  57 53 114.7 0.00264574
  58 55 114.5 0.00264113
  59 57 100.4 0.00231589
  60 59 93.9 0.00216596
  61 61 80.1 0.00184764
  62 63 82.3 0.00189838
  63 65 73.9 0.00170462
  64 67 71.3 0.00164465
  65 69 61.2 0.00141168
  66 71 69.1 0.0015939
  67 73 68.9 0.00158929
  68 75 87.9 0.00202756
  69 77 74.5 0.00171846
  70 79 100.1 0.00230897
  71 81 124.3 0.00286718
  72 83 117.7 0.00271494
  73 85 165.4 0.00381522
  74 87 180.6 0.00416584
  75 89 199.3 0.00459718
  76 91 223.9 0.00516462
  77 93 238.9 0.00551062
  78 95 247.4 0.00570669
  79 97 280.8 0.00647711
  80 99 270.6 0.00624183
  81 101 311.4 0.00718295
  82 103 302.4 0.00697535
  83 105 332.5 0.00766966
  84 107 344.9 0.00795568
  85 109 369.3 0.00851851
  86 111 359.2 0.00828554
  87 113 357.2 0.0082394
  88 115 352.2 0.00812407
  89 117 354.1 0.0081679
  90 119 377 0.00869612
  91 121 370.4 0.00854388
  92 123 354.9 0.00818635
  93 125 363.7 0.00838934
  94 127 367.2 0.00847007
  95 129 360 0.00830399
  96 131 353.9 0.00816328
  97 133 371.2 0.00856234
  98 135 347.3 0.00801104
  99 137 367.3 0.00847238
  100 139 351.9 0.00811715
  101 141 381.5 0.00879992
  102 143 347.5 0.00801566
  103 145 364.5 0.00840779
  104 147 375.8 0.00866844
  105 149 351.1 0.0080987
  106 151 367.5 0.00847699
  107 153 354.3 0.00817251
  108 155 366.5 0.00845392
  109 157 370.3 0.00854158
  110 159 355.2 0.00819327
  111 161 353.4 0.00815175
  112 163 365.1 0.00842163
  113 165 361.7 0.0083432
  114 167 352.2 0.00812407
  115 169 379.1 0.00874456
  116 171 342 0.00788879
  117 173 383.6 0.00884836
  118 175 348.5 0.00803872
  119 177 383 0.00883452
  120 179 357.9 0.00825555
  121 181 358.1 0.00826016
  122 183 347.6 0.00801796
  123 185 381.2 0.008793
  124 187 343.6 0.0079257
  125 189 377.9 0.00871688
  126 191 354 0.00816559
  127 193 375.7 0.00866614
  128 195 372.4 0.00859002
  129 197 336.4 0.00775962
  130 199 380 0.00876532
  131 201 344.2 0.00793954
  132 203 366.2 0.008447
  133 205 359 0.00828092
  134 207 370.8 0.00855311
  135 209 361.5 0.00833859
  136 211 344.2 0.00793954
  137 213 337.1 0.00777577
  138 215 299 0.00689693
  139 217 225.1 0.0051923
  140 219 88 0.00202986
  141 221 24.6 0.000567439
  142 223 1.8 4.152e-05
  143 225 0 0
800000 143 39189
  1 -59 0 0
  2 -57 135.1 0.0031163
  3 -55 275.4 0.00635255
  4 -53 326.9 0.00754049
  5 -51 304.6 0.0070261
  6 -49 330.5 0.00762353
  7 -47 330.1 0.0076143
  8 -45 335.3 0.00773425
  9 -43 325 0.00749666
  10 -41 343.5 0.00792339
  11 -39 328.9 0.00758662
  12 -37 312.4 0.00720602
  13 -35 330.4 0.00762122
  14 -33 318.2 0.00733981
  15 -31 316.1 0.00729137
  16 -29 299.3 0.00690385
  17 -27 296.3 0.00683465
  18 -25 300.4 0.00692922
  19 -23 297.9 0.00687155
  20 -21 266.4 0.00614495
  21 -19 285.3 0.00658091
  22 -17 266.3 0.00614265
  23 -15 266.3 0.00614265
  24 -13 262.1 0.00604577
  25 -11 257.4 0.00593735
  26 -9 262.9 0.00606422
  27 -7 244 0.00562826
  28 -5 258.8 0.00596965
  29 -3 245.9 0.00567209
  30 -1 239.8 0.00553138
  31 1 244.7 0.00564441
  32 3 243.3 0.00561211
  33 5 227.4 0.00524535
  34 7 234.2 0.00540221
  35 9 237.9 0.00548755
  36 11 232.1 0.00535377
  37 13 231.4 0.00533762
  38 15 247.2 0.00570207
  39 17 222.4 0.00513002
  40 19 221.8 0.00511618
  41 21 225.5 0.00520153
  42 23 222.4 0.00513002
  43 25 214.4 0.00494549
  44 27 215.7 0.00497547
  45 29 202.5 0.004671
  46 31 226.7 0.00522921
  47 33 208.8 0.00481631
  48 35 211.8 0.00488551
  49 37 225.6 0.00520383
  50 39 219.6 0.00506543
  51 41 212.4 0.00489935
  52 43 202.9 0.00468022
  53 45 226.3 0.00521998
  54 47 223.9 0.00516462
  55 49 234 0.00539759
  56 51 212 0.00489013
  57 53 214.3 0.00494318
  58 55 205.1 0.00473097
  59 57 193.6 0.0044657
  60 59 185 0.00426733
  61 61 186.9 0.00431116
  62 63 158.5 0.00365606
  63 65 155.1 0.00357764
  64 67 140.5 0.00324086
  65 69 119 0.00274493
  66 71 96.7 0.00223054
  67 73 92.5 0.00213366
  68 75 91 0.00209906
  69 77 85.9 0.00198142
  70 79 79.3 0.00182918
  71 81 96.3 0.00222132
  72 83 92.6 0.00213597
  73 85 116.6 0.00268957
  74 87 121.2 0.00279568
  75 89 165 0.003806
  76 91 168.6 0.00388904
  77 93 215.9 0.00498009
  78 95 214.2 0.00494087
  79 97 269.5 0.00621646
  80 99 279.4 0.00644482
  81 101 295.3 0.00681158
  82 103 338.6 0.00781037
  83 105 330 0.00761199
  84 107 361.8 0.00834551
  85 109 346.8 0.00799951
  86 111 355.9 0.00820942
  87 113 365.8 0.00843778
  88 115 352.4 0.00812868
  89 117 371.8 0.00857618
  90 119 364 0.00839626
  91 121 364.2 0.00840087
  92 123 368.9 0.00850928
  93 125 365.3 0.00842624
  94 127 367.5 0.00847699
  95 129 355 0.00818866
  96 131 375.2 0.0086546
  97 133 351.2 0.008101
  98 135 365.8 0.00843778
  99 137 369.5 0.00852312
  100 139 352.9 0.00814022
  101 141 369.6 0.00852543
  102 143 357.9 0.00825555
  103 145 367.3 0.00847238
  104 147 361.1 0.00832936
  105 149 354 0.00816559
  106 151 369 0.00851159
  107 153 354.5 0.00817712
  108 155 362 0.00835012
  109 157 365.6 0.00843316
  110 159 359.4 0.00829015
  111 161 365.5 0.00843086
  112 163 358.5 0.00826939
  113 165 371.2 0.00856234
  114 167 350.6 0.00808716
  115 169 368.8 0.00850698
  116 171 345.7 0.00797414
  117 173 382.5 0.00882299
  118 175 361.6 0.0083409
  119 177 384.7 0.00887374
  120 179 338 0.00779653
  121 181 383.3 0.00884144
  122 183 351.7 0.00811254
  123 185 359.5 0.00829246
  124 187 354.6 0.00817943
  125 189 369.1 0.0085139
  126 191 364.1 0.00839856
  127 193 355.1 0.00819096
  128 195 376.6 0.0086869
  129 197 362.7 0.00836627
  130 199 362.8 0.00836858
  131 201 359 0.00828092
  132 203 357.7 0.00825094
  133 205 371.9 0.00857848
  134 207 352.6 0.0081333
  135 209 375.9 0.00867075
  136 211 348.4 0.00803642
  137 213 339.7 0.00783574
  138 215 320.1 0.00738363
  139 217 238.3 0.00549678
  140 219 140.1 0.00323164
  141 221 47.1 0.00108644
  142 223 2.2 5.07466e-05
  143 225 0 0
900000 143 39189
  1 -59 0 0
  2 -57 57.3 0.00132172
  3 -55 158.3 0.00365145
  4 -53 226.9 0.00523382
  5 -51 266.6 0.00614957
  6 -49 249.3 0.00575051
  7 -47 254.8 0.00587738
  8 -45 257.7 0.00594427
  9 -43 256.6 0.0059189
  10 -41 255.9 0.00590275
  11 -39 257.2 0.00593274
  12 -37 258 0.00595119
  13 -35 247.2 0.00570207
  14 -33 265.3 0.00611958
  15 -31 231.3 0.00533531
  16 -29 249.5 0.00575513
  17 -27 238.5 0.00550139
  18 -25 261.3 0.00602731
  19 -23 245.7 0.00566747
  20 -21 245.4 0.00566055
  21 -19 262.7 0.00605961
  22 -17 224.2 0.00517154
  23 -15 249.4 0.00575282
  24 -13 237.1 0.0054691
  25 -11 246.6 0.00568823
  26 -9 250.4 0.00577589
  27 -7 242.1 0.00558443
  28 -5 246.6 0.00568823
  29 -3 236.5 0.00545526
  30 -1 283.7 0.00654401
  31 1 246.5 0.00568593
  32 3 268.5 0.00619339
  33 5 241.3 0.00556598
  34 7 265.2 0.00611727
  35 9 243.2 0.00560981
  36 11 268.3 0.00618878
  37 13 267.2 0.00616341
  38 15 270.3 0.00623491
  39 17 271.5 0.00626259
  40 19 261 0.00602039
  41 21 280.6 0.0064725
  42 23 272.7 0.00629027
  43 25 286.5 0.00660859
  44 27 280.9 0.00647942
  45 29 296.5 0.00683926
  46 31 272.8 0.00629258
  47 33 291.7 0.00672854
  48 35 266 0.00613573
  49 37 278.1 0.00641483
  50 39 269.6 0.00621877
  51 41 269.9 0.00622569
  52 43 267 0.00615879
  53 45 278.4 0.00642175
  54 47 256.8 0.00592351
  55 49 261.3 0.00602731
  56 51 258.5 0.00596273
  57 53 245.5 0.00566286
  58 55 252 0.00581279
  59 57 228.7 0.00527534
  60 59 213.6 0.00492703
  61 61 178.9 0.00412662
  62 63 161.5 0.00372526
  63 65 143.7 0.00331468
  64 67 116 0.00267573
  65 69 82.7 0.00190761
  66 71 60.8 0.00140245
  67 73 40.6 0.000936506
  68 75 38.6 0.000890372
  69 77 47.5 0.00109567
  70 79 41.4 0.000954959
  71 81 58.8 0.00135632
  72 83 67.5 0.001557
  73 85 97.1 0.00223977
  74 87 121 0.00279106
  75 89 148.3 0.00342078
  76 91 188.7 0.00435268
  77 93 230.1 0.00530763
  78 95 277.9 0.00641022
  79 97 287.9 0.00664089
  80 99 343.5 0.00792339
  81 101 321.6 0.00741823
  82 103 361.7 0.0083432
  83 105 338.2 0.00780114
  84 107 375.1 0.0086523
  85 109 365.8 0.00843778
  86 111 351.4 0.00810562
  87 113 380.7 0.00878147
  88 115 356.8 0.00823018
  89 117 371.8 0.00857618
  90 119 348.4 0.00803642
  91 121 377.5 0.00870766
  92 123 354.1 0.0081679
  93 125 364.9 0.00841702
  94 127 349.6 0.0080641
  95 129 373.2 0.00860847
  96 131 344.5 0.00794646
  97 133 366.7 0.00845854
  98 135 359.4 0.00829015
  99 137 368.7 0.00850467
  100 139 362.5 0.00836166
  101 141 371.2 0.00856234
  102 143 357.9 0.00825555
  103 145 358.2 0.00826247
  104 147 357.4 0.00824402
  105 149 365.4 0.00842855
  106 151 359.1 0.00828323
  107 153 362.3 0.00835704
  108 155 367.5 0.00847699
  109 157 364.1 0.00839856
  110 159 356.8 0.00823018
  111 161 356.3 0.00821864
  112 163 375.2 0.0086546
  113 165 355.3 0.00819558
  114 167 362.4 0.00835935
  115 169 366 0.00844239
  116 171 376.8 0.00869151
  117 173 349.1 0.00805256
  118 175 356.3 0.00821864
  119 177 382.1 0.00881376
  120 179 359 0.00828092
  121 181 374.4 0.00863615
  122 183 356.4 0.00822095
  123 185 354.3 0.00817251
  124 187 366.3 0.00844931
  125 189 367.7 0.0084816
  126 191 364.3 0.00840318
  127 193 353.7 0.00815867
  128 195 367 0.00846546
  129 197 359.9 0.00830168
  130 199 365.2 0.00842394
  131 201 365.2 0.00842394
  132 203 366 0.00844239
  133 205 363.6 0.00838703
  134 207 346.5 0.00799259
  135 209 392.1 0.00904443
  136 211 351.4 0.00810562
  137 213 358.3 0.00826478
  138 215 334.3 0.00771118
  139 217 289.9 0.00668702
  140 219 209.8 0.00483938
  141 221 96.2 0.00221901
  142 223 10.8 0.00024912
  143 225 0 0
1000000 143 39189
  1 -59 0 0
  2 -57 44.1 0.00101724
  3 -55 150.9 0.00348076
  4 -53 186.9 0.00431116
  5 -51 236.7 0.00545987
  6 -49 246.5 0.00568593
  7 -47 236.1 0.00544603
  8 -45 252.2 0.00581741
  9 -43 239.4 0.00552215
  10 -41 243.3 0.00561211
  11 -39 236.4 0.00545295
  12 -37 253.7 0.00585201
  13 -35 249.8 0.00576205
  14 -33 256.5 0.00591659
  15 -31 237.2 0.00547141
  16 -29 268.6 0.0061957
  17 -27 227.3 0.00524305
  18 -25 256.6 0.0059189
  19 -23 263.9 0.00608729
  20 -21 236.8 0.00546218
  21 -19 263.9 0.00608729
  22 -17 223.4 0.00515309
  23 -15 279.7 0.00645174
  24 -13 222.6 0.00513463
  25 -11 263.8 0.00608498
  26 -9 249.8 0.00576205
  27 -7 270.2 0.00623261
  28 -5 257.8 0.00594658
  29 -3 250.5 0.00577819
  30 -1 267.8 0.00617725
  31 1 265.8 0.00613111
  32 3 282.7 0.00652094
  33 5 263.3 0.00607345
  34 7 273.8 0.00631565
  35 9 280.4 0.00646789
  36 11 257.5 0.00593966
  37 13 311 0.00717373
  38 15 252.2 0.00581741
  39 17 324.9 0.00749435
  40 19 259.4 0.00598349
  41 21 303.5 0.00700073
  42 23 253.8 0.00585431
  43 25 306.6 0.00707223
  44 27 293.1 0.00676083
  45 29 291 0.00671239
  46 31 297.3 0.00685771
  47 33 297.5 0.00686233
  48 35 290.6 0.00670317
  49 37 297 0.00685079
  50 39 302.2 0.00697074
  51 41 282.8 0.00652325
  52 43 295 0.00680466
  53 45 285.5 0.00658553
  54 47 269.5 0.00621646
  55 49 264 0.00608959
  56 51 258.8 0.00596965
  57 53 232 0.00535146
  58 55 230.1 0.00530763
  59 57 204.2 0.00471021
  60 59 188.1 0.00433884
  61 61 154.1 0.00355457
  62 63 118.3 0.00272878
  63 65 74.9 0.00172769
  64 67 45.8 0.00105645
  65 69 27.1 0.000625106
  66 71 16.1 0.000371373
  67 73 10.9 0.000251426
  68 75 19.7 0.000454413
  69 77 32.8 0.000756586
  70 79 32.6 0.000751973
  71 81 54.4 0.00125483
  72 83 58.4 0.00134709
  73 85 88.6 0.0020437
  74 87 111.7 0.00257654
  75 89 159.2 0.00367221
  76 91 210 0.00484399
  77 93 245.5 0.00566286
  78 95 288.9 0.00666395
  79 97 308.1 0.00710683
  80 99 331.4 0.00764429
  81 101 365.5 0.00843086
  82 103 352 0.00811946
  83 105 356.5 0.00822326
  84 107 369.6 0.00852543
  85 109 348.1 0.0080295
  86 111 389.4 0.00898215
  87 113 354.3 0.00817251
  88 115 365.8 0.00843778
  89 117 359.5 0.00829246
  90 119 366.6 0.00845623
  91 121 346.5 0.00799259
  92 123 381.8 0.00880684
  93 125 344.6 0.00794876
  94 127 377.5 0.00870766
  95 129 357.9 0.00825555
  96 131 366.8 0.00846084
  97 133 344.3 0.00794184
  98 135 378.3 0.00872611
  99 137 352 0.00811946
  100 139 376.5 0.00868459
  101 141 358.3 0.00826478
  102 143 356.1 0.00821403
  103 145 375.1 0.0086523
  104 147 358 0.00825786
  105 149 378.3 0.00872611
  106 151 343 0.00791186
  107 153 372.5 0.00859232
  108 155 364.6 0.0084101
  109 157 365.2 0.00842394
  110 159 358 0.00825786
  111 161 366.3 0.00844931
  112 163 370.2 0.00853927
  113 165 352.2 0.00812407
  114 167 370.2 0.00853927
  115 169 339 0.00781959
  116 171 380.4 0.00877455
  117 173 358.7 0.008274
  118 175 345.9 0.00797875
  119 177 387.4 0.00893602
  120 179 345.9 0.00797875
  121 181 370.5 0.00854619
  122 183 348.8 0.00804564
  123 185 372.7 0.00859694
  124 187 338.3 0.00780345
  125 189 373.8 0.00862231
  126 191 349.5 0.00806179
  127 193 374.3 0.00863384
  128 195 366.5 0.00845392
  129 197 350.4 0.00808255
  130 199 385.8 0.00889911
  131 201 350 0.00807332
  132 203 382.8 0.00882991
  133 205 342.9 0.00790955
  134 207 362.2 0.00835474
  135 209 366.6 0.00845623
  136 211 367.7 0.0084816
  137 213 361.1 0.00832936
  138 215 336.6 0.00776423
  139 217 331.9 0.00765582
  140 219 240 0.00553599
  141 221 121.5 0.0028026
  142 223 21.8 0.000502853
  143 225 0 0
1100000 143 39189
  1 -59 0 0
  2 -57 41.4 0.000954959
  3 -55 125.6 0.00289717
  4 -53 195.2 0.00450261
  5 -51 205.2 0.00473328
  6 -49 245 0.00565133
  7 -47 236.4 0.00545295
  8 -45 241.7 0.00557521
  9 -43 240.8 0.00555445
  10 -41 251.3 0.00579665
  11 -39 247.2 0.00570207
  12 -37 247.4 0.00570669
  13 -35 255 0.00588199
  14 -33 240.7 0.00555214
  15 -31 262 0.00604346
  16 -29 238.2 0.00549447
  17 -27 247.5 0.00570899
  18 -25 243 0.00560519
  19 -23 259 0.00597426
  20 -21 256.8 0.00592351
  21 -19 243.6 0.00561903
  22 -17 242.9 0.00560289
  23 -15 263 0.00606653
  24 -13 261 0.00602039
  25 -11 245.2 0.00565594
  26 -9 267.2 0.00616341
  27 -7 240.3 0.00554291
  28 -5 265.8 0.00613111
  29 -3 253.7 0.00585201
  30 -1 279.9 0.00645635
  31 1 275.2 0.00634794
  32 3 261.2 0.00602501
  33 5 281.5 0.00649326
  34 7 273.3 0.00630411
  35 9 282.6 0.00651863
  36 11 273 0.00629719
  37 13 306.7 0.00707454
  38 15 284.8 0.00656938
  39 17 285.4 0.00658322
  40 19 275.6 0.00635717
  41 21 311.3 0.00718065
  42 23 267.1 0.0061611
  43 25 316.4 0.00729829
  44 27 291.9 0.00673315
  45 29 287.7 0.00663627
  46 31 305.8 0.00705378
  47 33 292.7 0.00675161
  48 35 295.6 0.0068185
  49 37 298.4 0.00688309
  50 39 298.4 0.00688309
  51 41 318.8 0.00735365
  52 43 295.3 0.00681158
  53 45 302.6 0.00697997
  54 47 286 0.00659706
  55 49 319.9 0.00737902
  56 51 276.8 0.00638485
  57 53 261.4 0.00602962
  58 55 229.2 0.00528687
  59 57 206.4 0.00476095
  60 59 149.8 0.00345538
  61 61 124.1 0.00286257
  62 63 77 0.00177613
  63 65 16.1 0.000371373
  64 67 2 4.61333e-05
  65 69 0 0
  66 71 0 0
  67 73 0 0
  68 75 1.6 3.69066e-05
  69 77 4.4 0.000101493
  70 79 11.8 0.000272186
  71 81 16.3 0.000375986
  72 83 47.9 0.00110489
  73 85 80.9 0.00186609
  74 87 143.7 0.00331468
  75 89 191.8 0.00442418
  76 91 223.5 0.00515539
  77 93 276 0.00636639
  78 95 312.7 0.00721294
  79 97 337.9 0.00779422
  80 99 355.1 0.00819096
  81 101 352.6 0.0081333
  82 103 369.7 0.00852774
  83 105 364 0.00839626
  84 107 372.8 0.00859924
  85 109 352.5 0.00813099
  86 111 361.2 0.00833167
  87 113 371.4 0.00856695
  88 115 366.7 0.00845854
  89 117 360.5 0.00831552
  90 119 373.3 0.00861078
  91 121 346.1 0.00798336
  92 123 380 0.00876532
  93 125 361.4 0.00833628
  94 127 361.2 0.00833167
  95 129 360.3 0.00831091
  96 131 370.2 0.00853927
  97 133 358.4 0.00826708
  98 135 371.8 0.00857618
  99 137 364.4 0.00840548
  100 139 364.9 0.00841702
  101 141 359.4 0.00829015
  102 143 362.6 0.00836396
  103 145 351.6 0.00811023
  104 147 359.9 0.00830168
  105 149 377.1 0.00869843
  106 151 349.5 0.00806179
  107 153 370.7 0.0085508
  108 155 362.6 0.00836396
  109 157 352.6 0.0081333
  110 159 366.6 0.00845623
  111 161 359.3 0.00828784
  112 163 368.9 0.00850928
  113 165 367.2 0.00847007
  114 167 363.2 0.0083778
  115 169 360.4 0.00831322
  116 171 360.1 0.0083063
  117 173 376.2 0.00867767
  118 175 356.3 0.00821864
  119 177 382.4 0.00882068
  120 179 346.9 0.00800182
  121 181 367.7 0.0084816
  122 183 343.7 0.00792801
  123 185 385.9 0.00890142
  124 187 344.9 0.00795568
  125 189 370.6 0.0085485
  126 191 352.4 0.00812868
  127 193 374.2 0.00863154
  128 195 372.9 0.00860155
  129 197 350.4 0.00808255
  130 199 379.1 0.00874456
  131 201 352.1 0.00812176
  132 203 351.5 0.00810792
  133 205 372.8 0.00859924
  134 207 360.2 0.0083086
  135 209 357.5 0.00824632
  136 211 364.7 0.0084124
  137 213 356.3 0.00821864
  138 215 343 0.00791186
  139 217 304.1 0.00701457
  140 219 218.4 0.00503775
  141 221 128.9 0.00297329
  142 223 25.2 0.000581279
  143 225 0 0
1200000 143 39189
  1 -59 0 0
  2 -57 43.2 0.000996479
  3 -55 100.4 0.00231589
  4 -53 197.6 0.00455797
  5 -51 232.7 0.00536761
  6 -49 240.3 0.00554291
  7 -47 228.5 0.00527073
  8 -45 245.4 0.00566055
  9 -43 253.5 0.00584739
  10 -41 225.6 0.00520383
  11 -39 248 0.00572053
  12 -37 246.1 0.0056767
  13 -35 245.5 0.00566286
  14 -33 257.6 0.00594197
  15 -31 249.7 0.00575974
  16 -29 255.2 0.00588661
  17 -27 244.4 0.00563749
  18 -25 242.9 0.00560289
  19 -23 256.8 0.00592351
  20 -21 259.7 0.00599041
  21 -19 269.8 0.00622338
  22 -17 241.2 0.00556367
  23 -15 270.4 0.00623722
  24 -13 243.9 0.00562595
  25 -11 277 0.00638946
  26 -9 234.5 0.00540913
  27 -7 268.9 0.00620262
  28 -5 250.3 0.00577358
  29 -3 281.6 0.00649557
  30 -1 265.2 0.00611727
  31 1 267.8 0.00617725
  32 3 281.4 0.00649095
  33 5 279.2 0.00644021
  34 7 291.6 0.00672623
  35 9 266.6 0.00614957
  36 11 320 0.00738133
  37 13 262.3 0.00605038
  38 15 307.1 0.00708377
  39 17 272.3 0.00628105
  40 19 322.7 0.00744361
  41 21 284.9 0.00657169
  42 23 307.5 0.00709299
  43 25 296.4 0.00683695
  44 27 305.8 0.00705378
  45 29 303.7 0.00700534
  46 31 290.5 0.00670086
  47 33 298.2 0.00687847
  48 35 308.3 0.00711145
  49 37 327.5 0.00755433
  50 39 268.6 0.0061957
  51 41 322.4 0.00743669
  52 43 299.5 0.00690846
  53 45 321.4 0.00741362
  54 47 284.5 0.00656246
  55 49 307 0.00708146
  56 51 283.1 0.00653017
  57 53 235.2 0.00542527
  58 55 216.4 0.00499162
  59 57 180.7 0.00416814
  60 59 145.3 0.00335158
  61 61 76 0.00175306
  62 63 49.2 0.00113488
  63 65 9 0.0002076
  64 67 4 9.22666e-05
  65 69 0 0
  66 71 1 2.30666e-05
  67 73 3 6.91999e-05
  68 75 2 4.61333e-05
  69 77 3.5 8.07332e-05
  70 79 15.4 0.000355226
  71 81 30.2 0.000696613
  72 83 43.7 0.00100801
  73 85 85.3 0.00196758
  74 87 143.3 0.00330545
  75 89 197.2 0.00454874
  76 91 224.2 0.00517154
  77 93 274.4 0.00632949
  78 95 318.9 0.00735595
  79 97 346.7 0.0079972
  80 99 378 0.00871919
  81 101 340.1 0.00784497
  82 103 372.9 0.00860155
  83 105 365.9 0.00844008
  84 107 361.5 0.00833859
  85 109 367.5 0.00847699
  86 111 355.2 0.00819327
  87 113 370.8 0.00855311
  88 115 356.1 0.00821403
  89 117 367.9 0.00848622
  90 119 358.1 0.00826016
  91 121 368.7 0.00850467
  92 123 379.9 0.00876302
  93 125 345.9 0.00797875
  94 127 377.1 0.00869843
  95 129 352.2 0.00812407
  96 131 381 0.00878839
  97 133 341.7 0.00788187
  98 135 376.9 0.00869382
  99 137 364.9 0.00841702
  100 139 362.9 0.00837088
  101 141 365.6 0.00843316
  102 143 344.8 0.00795338
  103 145 388.2 0.00895447
  104 147 344.5 0.00794646
  105 149 386.8 0.00892218
  106 151 347.7 0.00802027
  107 153 369.3 0.00851851
  108 155 353.3 0.00814944
  109 157 373.6 0.0086177
  110 159 364.8 0.00841471
  111 161 349.3 0.00805718
  112 163 369.4 0.00852082
  113 165 366.2 0.008447
  114 167 369.9 0.00853235
  115 169 364 0.00839626
  116 171 377.9 0.00871688
  117 173 356.5 0.00822326
  118 175 372.4 0.00859002
  119 177 351.6 0.00811023
  120 179 380.2 0.00876994
  121 181 346.4 0.00799028
  122 183 388.6 0.0089637
  123 185 346.2 0.00798567
  124 187 375.6 0.00866383
  125 189 352.9 0.00814022
  126 191 379.6 0.0087561
  127 193 352.3 0.00812638
  128 195 362.6 0.00836396
  129 197 359.6 0.00829476
  130 199 371.9 0.00857848
  131 201 363.8 0.00839164
  132 203 353.6 0.00815636
  133 205 370.6 0.0085485
  134 207 341.2 0.00787034
  135 209 371.2 0.00856234
  136 211 354.9 0.00818635
  137 213 365.9 0.00844008
  138 215 336.7 0.00776654
  139 217 293.3 0.00676545
  140 219 193.9 0.00447262
  141 221 91.5 0.0021106
  142 223 14.7 0.00033908
  143 225 0 0
1300000 143 39189
  1 -59 0 0
  2 -57 54.8 0.00126405
  3 -55 120.2 0.00277261
  4 -53 182.7 0.00421428
  5 -51 219.4 0.00506082
  6 -49 235.5 0.00543219
  7 -47 239.2 0.00551754
  8 -45 218.4 0.00503775
  9 -43 267.6 0.00617263
  10 -41 228 0.00525919
  11 -39 264.4 0.00609882
  12 -37 267.7 0.00617494
  13 -35 251.2 0.00579434
  14 -33 252.5 0.00582433
  15 -31 241 0.00555906
  16 -29 269.3 0.00621185
  17 -27 229.6 0.0052961
  18 -25 279 0.00643559
  19 -23 237 0.00546679
  20 -21 264.4 0.00609882
  21 -19 228.4 0.00526842
  22 -17 265.3 0.00611958
  23 -15 251.2 0.00579434
  24 -13 246.8 0.00569285
  25 -11 256.9 0.00592582
  26 -9 255 0.00588199
  27 -7 255.4 0.00589122
  28 -5 279 0.00643559
  29 -3 269.2 0.00620954
  30 -1 268.9 0.00620262
  31 1 279.9 0.00645635
  32 3 267 0.00615879
  33 5 284.6 0.00656477
  34 7 294.8 0.00680005
  35 9 282.3 0.00651171
  36 11 278.5 0.00642406
  37 13 305.4 0.00704455
  38 15 267.1 0.0061611
  39 17 293.6 0.00677237
  40 19 284.5 0.00656246
  41 21 299.8 0.00691538
  42 23 275.1 0.00634563
  43 25 310.7 0.00716681
  44 27 287.5 0.00663166
  45 29 326.9 0.00754049
  46 31 291.9 0.00673315
  47 33 317.4 0.00732135
  48 35 305.1 0.00703763
  49 37 302.9 0.00698689
  50 39 296.1 0.00683003
  51 41 300.3 0.00692691
  52 43 309.6 0.00714143
  53 45 301.4 0.00695229
  54 47 325.7 0.00751281
  55 49 301.3 0.00694998
  56 51 266.7 0.00615187
  57 53 241.8 0.00557751
  58 55 208.6 0.0048117
  59 57 177 0.0040828
  60 59 145.2 0.00334928
  61 61 83.2 0.00191914
  62 63 50.6 0.00116717
  63 65 8.2 0.000189146
  64 67 3.3 7.61199e-05
  65 69 0 0
  66 71 0 0
  67 73 0 0
  68 75 0 0
  69 77 7 0.000161466
  70 79 14.5 0.000334466
  71 81 21.4 0.000493626
  72 83 37.6 0.000867306
  73 85 83.4 0.00192376
  74 87 141.2 0.00325701
  75 89 205.8 0.00474712
  76 91 245.2 0.00565594
  77 93 277.8 0.00640791
  78 95 312.9 0.00721755
  79 97 353.3 0.00814944
  80 99 349.8 0.00806871
  81 101 369.2 0.0085162
  82 103 366.2 0.008447
  83 105 354.5 0.00817712
  84 107 357.7 0.00825094
  85 109 372.8 0.00859924
  86 111 358.7 0.008274
  87 113 376.6 0.0086869
  88 115 353.3 0.00814944
  89 117 377 0.00869612
  90 119 367.6 0.0084793
  91 121 355.9 0.00820942
  92 123 350.9 0.00809408
  93 125 383.4 0.00884375
  94 127 358.2 0.00826247
  95 129 358.5 0.00826939
  96 131 357.6 0.00824863
  97 133 358.4 0.00826708
  98 135 368.4 0.00849775
  99 137 366.3 0.00844931
  100 139 348.7 0.00804334
  101 141 376.3 0.00867998
  102 143 362.9 0.00837088
  103 145 350.4 0.00808255
  104 147 380.3 0.00877224
  105 149 337.1 0.00777577
  106 151 391.6 0.0090329
  107 153 347.6 0.00801796
  108 155 384.5 0.00886912
  109 157 338.7 0.00781267
  110 159 385.6 0.0088945
  111 161 341.5 0.00787726
  112 163 364.6 0.0084101
  113 165 379.1 0.00874456
  114 167 360.3 0.00831091
  115 169 363.7 0.00838934
  116 171 374.7 0.00864307
  117 173 346.9 0.00800182
  118 175 376.2 0.00867767
  119 177 347.9 0.00802488
  120 179 377.1 0.00869843
  121 181 350.1 0.00807563
  122 183 364.6 0.0084101
  123 185 372.9 0.00860155
  124 187 340.4 0.00785189
  125 189 375.7 0.00866614
  126 191 353 0.00814252
  127 193 378.9 0.00873995
  128 195 351 0.00809639
  129 197 364 0.00839626
  130 199 363.2 0.0083778
  131 201 351.4 0.00810562
  132 203 366.1 0.0084447
  133 205 373.5 0.00861539
  134 207 345.4 0.00796722
  135 209 384.2 0.0088622
  136 211 352.9 0.00814022
  137 213 370.8 0.00855311
  138 215 335.6 0.00774117
  139 217 287.8 0.00663858
  140 219 236.8 0.00546218
  141 221 86.1 0.00198604
  142 223 15.8 0.000364453
  143 225 0 0
1400000 143 39189
  1 -59 0 0
  2 -57 38.7 0.000892679
  3 -55 150 0.00346
  4 -53 199.9 0.00461102
  5 -51 224.9 0.00518769
  6 -49 228.7 0.00527534
  7 -47 255.6 0.00589583
  8 -45 226.2 0.00521767
  9 -43 246.4 0.00568362
  10 -41 238.1 0.00549217
  11 -39 248.6 0.00573437
  12 -37 233.2 0.00537914
  13 -35 269.1 0.00620723
  14 -33 239.5 0.00552446
  15 -31 248.2 0.00572514
  16 -29 261.1 0.0060227
  17 -27 258.7 0.00596734
  18 -25 258.7 0.00596734
  19 -23 245.4 0.00566055
  20 -21 274.7 0.00633641
  21 -19 245.8 0.00566978
  22 -17 266.1 0.00613803
  23 -15 238.8 0.00550831
  24 -13 263.9 0.00608729
  25 -11 250.6 0.0057805
  26 -9 269.1 0.00620723
  27 -7 256 0.00590506
  28 -5 258.1 0.0059535
  29 -3 264.9 0.00611035
  30 -1 261.9 0.00604115
  31 1 265.5 0.00612419
  32 3 291.3 0.00671931
  33 5 296.2 0.00683234
  34 7 291 0.00671239
  35 9 272.9 0.00629489
  36 11 285.8 0.00659245
  37 13 281.5 0.00649326
  38 15 294 0.00678159
  39 17 282.6 0.00651863
  40 19 305.5 0.00704686
  41 21 292.1 0.00673777
  42 23 290.2 0.00669394
  43 25 295.2 0.00680927
  44 27 320 0.00738133
  45 29 297.2 0.00685541
  46 31 308.6 0.00711837
  47 33 298.9 0.00689462
  48 35 298.4 0.00688309
  49 37 319.3 0.00736518
  50 39 299 0.00689693
  51 41 311.2 0.00717834
  52 43 285.6 0.00658783
  53 45 321.2 0.00740901
  54 47 301.1 0.00694537
  55 49 290 0.00668933
  56 51 286.1 0.00659937
  57 53 247.7 0.00571361
  58 55 219.1 0.0050539
  59 57 157.6 0.0036353
  60 59 139.9 0.00322702
  61 61 72 0.0016608
  62 63 29.4 0.000678159
  63 65 4 9.22666e-05
  64 67 1 2.30666e-05
  65 69 0 0
  66 71 0 0
  67 73 0 0
  68 75 0 0
  69 77 0.7 1.61466e-05
  70 79 8.4 0.00019376
  71 81 32.8 0.000756586
  72 83 41.1 0.000948039
  73 85 95.8 0.00220978
  74 87 142.6 0.0032893
  75 89 204.5 0.00471713
  76 91 236.6 0.00545757
  77 93 308.3 0.00711145
  78 95 308.8 0.00712298
  79 97 373.2 0.00860847
  80 99 333 0.00768119
  81 101 378.5 0.00873072
  82 103 326.2 0.00752434
  83 105 399.3 0.00921051
  84 107 354.4 0.00817482
  85 109 373.2 0.00860847
  86 111 337.9 0.00779422
  87 113 391.1 0.00902136
  88 115 336.5 0.00776193
  89 117 374 0.00862692
  90 119 363.3 0.00838011
  91 121 357.1 0.0082371
  92 123 378.5 0.00873072
  93 125 352.7 0.0081356
  94 127 359.2 0.00828554
  95 129 373.5 0.00861539
  96 131 377.9 0.00871688
  97 133 352.5 0.00813099
  98 135 362.7 0.00836627
  99 137 348.6 0.00804103
  100 139 389.8 0.00899138
  101 141 350.1 0.00807563
  102 143 363.2 0.0083778
  103 145 361.2 0.00833167
  104 147 378.2 0.0087238
  105 149 340.3 0.00784958
  106 151 380.1 0.00876763
  107 153 354.7 0.00818174
  108 155 363.3 0.00838011
  109 157 369.6 0.00852543
  110 159 368.9 0.00850928
  111 161 357.9 0.00825555
  112 163 357.5 0.00824632
  113 165 375.3 0.00865691
  114 167 350.1 0.00807563
  115 169 366.1 0.0084447
  116 171 348.4 0.00803642
  117 173 377 0.00869612
  118 175 359.9 0.00830168
  119 177 355 0.00818866
  120 179 382 0.00881146
  121 181 340.8 0.00786111
  122 183 373.8 0.00862231
  123 185 358.8 0.00827631
  124 187 352.1 0.00812176
  125 189 364.7 0.0084124
  126 191 367.3 0.00847238
  127 193 359.1 0.00828323
  128 195 360.2 0.0083086
  129 197 367.2 0.00847007
  130 199 362.1 0.00835243
  131 201 372.1 0.0085831
  132 203 355 0.00818866
  133 205 388.6 0.0089637
  134 207 352 0.00811946
  135 209 355.7 0.0082048
  136 211 361.7 0.0083432
  137 213 344.6 0.00794876
  138 215 342.5 0.00790033
  139 217 294.6 0.00679543
  140 219 205.9 0.00474942
  141 221 99.1 0.0022859
  142 223 7.6 0.000175306
  143 225 0 0
