# Chunk-averaged data for fix 5 and group water3
# Timestep Number-of-chunks Total-count
# Chunk Coord1 Ncount density/number
1000000 62 13569
  1 -1 0 0
  2 1 91.6 0.00204411
  3 3 227.4 0.00507458
  4 5 290.8 0.00648939
  5 7 355.2 0.00792652
  6 9 346.8 0.00773907
  7 11 350.1 0.00781271
  8 13 344 0.00767658
  9 15 344.3 0.00768328
  10 17 363.1 0.00810281
  11 19 325.8 0.00727044
  12 21 378.2 0.00843978
  13 23 318.7 0.007112
  14 25 372.1 0.00830365
  15 27 319.9 0.00713878
  16 29 359.7 0.00802694
  17 31 317.4 0.00708299
  18 33 311 0.00694017
  19 35 285.4 0.00636889
  20 37 241.6 0.00539146
  21 39 178.6 0.00398557
  22 41 157 0.00350356
  23 43 96.1 0.00214453
  24 45 61.5 0.00137241
  25 47 33.9 0.0007565
  26 49 11.3 0.000252167
  27 51 5.5 0.000122736
  28 53 0 0
  29 55 0 0
  30 57 1 2.23156e-05
  31 59 0 0
  32 61 0 0
  33 63 0 0
  34 65 1 2.23156e-05
  35 67 1 2.23156e-05
  36 69 5.5 0.000122736
  37 71 19.4 0.000432924
  38 73 55 0.00122736
  39 75 99.9 0.00222933
  40 77 138.5 0.00309072
  41 79 206.3 0.00460372
  42 81 256.6 0.00572619
  43 83 281.8 0.00628855
  44 85 324.7 0.00724589
  45 87 354.1 0.00790197
  46 89 344.1 0.00767881
  47 91 373.9 0.00834382
  48 93 354.2 0.0079042
  49 95 368 0.00821216
  50 97 366.1 0.00816976
  51 99 369.8 0.00825233
  52 101 368.7 0.00822778
  53 103 342.4 0.00764088
  54 105 375.5 0.00837953
  55 107 362.9 0.00809835
  56 109 350.7 0.0078261
  57 111 359.7 0.00802694
  58 113 340 0.00758732
  59 115 337 0.00752037
  60 117 225 0.00502102
  61 119 99.2 0.00221371
  62 121 0 0
