# Chunk-averaged data for fix dens1 and group heads
# Timestep Number-of-chunks Total-count
# Chunk Coord1 Ncount density/number
500000 143 2768
  1 -59 0 0
  2 -57 0 0
  3 -55 0 0
  4 -53 0 0
  5 -51 0 0
  6 -49 0 0
  7 -47 0 0
  8 -45 0 0
  9 -43 0 0
  10 -41 0 0
  11 -39 0 0
  12 -37 0 0
  13 -35 0 0
  14 -33 0 0
  15 -31 0 0
  16 -29 0 0
  17 -27 0 0
  18 -25 0 0
  19 -23 0 0
  20 -21 0 0
  21 -19 0 0
  22 -17 0 0
  23 -15 0 0
  24 -13 0 0
  25 -11 0 0
  26 -9 0 0
  27 -7 0 0
  28 -5 0 0
  29 -3 0 0
  30 -1 0 0
  31 1 0 0
  32 3 0 0
  33 5 0 0
  34 7 0 0
  35 9 0 0
  36 11 0 0
  37 13 0 0
  38 15 0 0
  39 17 0 0
  40 19 0 0
  41 21 0 0
  42 23 0 0
  43 25 0.8 1.84533e-05
  44 27 11.4 0.00026296
  45 29 24.8 0.000572053
  46 31 60.6 0.00139784
  47 33 109.9 0.00253502
  48 35 125.3 0.00289025
  49 37 202.3 0.00466638
  50 39 222.9 0.00514155
  51 41 199.2 0.00459488
  52 43 163.2 0.00376448
  53 45 134.9 0.00311169
  54 47 79.8 0.00184072
  55 49 36.9 0.000851159
  56 51 14 0.000322933
  57 53 2 4.61333e-05
  58 55 0 0
  59 57 0 0
  60 59 0 0
  61 61 0 0
  62 63 3 6.91999e-05
  63 65 24.7 0.000569746
  64 67 69.4 0.00160082
  65 69 103.1 0.00237817
  66 71 154.8 0.00357072
  67 73 193.9 0.00447262
  68 75 221.2 0.00510234
  69 77 198.8 0.00458565
  70 79 151.4 0.00349229
  71 81 125.3 0.00289025
  72 83 63.2 0.00145781
  73 85 44.2 0.00101955
  74 87 17.5 0.000403666
  75 89 7.9 0.000182226
  76 91 1.6 3.69066e-05
  77 93 0 0
  78 95 0 0
  79 97 0 0
  80 99 0 0
  81 101 0 0
  82 103 0 0
  83 105 0 0
  84 107 0 0
  85 109 0 0
  86 111 0 0
  87 113 0 0
  88 115 0 0
  89 117 0 0
  90 119 0 0
  91 121 0 0
  92 123 0 0
  93 125 0 0
  94 127 0 0
  95 129 0 0
  96 131 0 0
  97 133 0 0
  98 135 0 0
  99 137 0 0
  100 139 0 0
  101 141 0 0
  102 143 0 0
  103 145 0 0
  104 147 0 0
  105 149 0 0
  106 151 0 0
  107 153 0 0
  108 155 0 0
  109 157 0 0
  110 159 0 0
  111 161 0 0
  112 163 0 0
  113 165 0 0
  114 167 0 0
  115 169 0 0
  116 171 0 0
  117 173 0 0
  118 175 0 0
  119 177 0 0
  120 179 0 0
  121 181 0 0
  122 183 0 0
  123 185 0 0
  124 187 0 0
  125 189 0 0
  126 191 0 0
  127 193 0 0
  128 195 0 0
  129 197 0 0
  130 199 0 0
  131 201 0 0
  132 203 0 0
  133 205 0 0
  134 207 0 0
  135 209 0 0
  136 211 0 0
  137 213 0 0
  138 215 0 0
  139 217 0 0
  140 219 0 0
  141 221 0 0
  142 223 0 0
  143 225 0 0
600000 143 2768
  1 -59 0 0
  2 -57 0 0
  3 -55 0 0
  4 -53 0 0
  5 -51 0 0
  6 -49 0 0
  7 -47 0 0
  8 -45 0 0
  9 -43 0 0
  10 -41 0 0
  11 -39 0 0
  12 -37 0 0
  13 -35 0 0
  14 -33 0 0
  15 -31 0 0
  16 -29 0 0
  17 -27 0 0
  18 -25 0 0
  19 -23 0 0
  20 -21 0 0
  21 -19 0 0
  22 -17 0 0
  23 -15 0 0
  24 -13 0 0
  25 -11 0 0
  26 -9 0 0
  27 -7 0 0
  28 -5 0 0
  29 -3 0 0
  30 -1 0 0
  31 1 0 0
  32 3 0 0
  33 5 0 0
  34 7 0 0
  35 9 1 2.30666e-05
  36 11 7.7 0.000177613
  37 13 7.8 0.00017992
  38 15 14.8 0.000341386
  39 17 23 0.000530533
  40 19 27.6 0.000636639
  41 21 48.9 0.00112796
  42 23 41.4 0.000954959
  43 25 41.8 0.000964186
  44 27 42.2 0.000973412
  45 29 54.5 0.00125713
  46 31 55.8 0.00128712
  47 33 59.5 0.00137247
  48 35 65.8 0.00151779
  49 37 66.2 0.00152701
  50 39 76.7 0.00176921
  51 41 83.7 0.00193068
  52 43 110.4 0.00254656
  53 45 111.1 0.0025627
  54 47 120 0.002768
  55 49 103.6 0.0023897
  56 51 90.5 0.00208753
  57 53 94.4 0.00217749
  58 55 74.2 0.00171154
  59 57 73.5 0.0016954
  60 59 70.3 0.00162158
  61 61 54.3 0.00125252
  62 63 59.5 0.00137247
  63 65 39.5 0.000911132
  64 67 49.8 0.00114872
  65 69 53.4 0.00123176
  66 71 58.5 0.0013494
  67 73 62.2 0.00143475
  68 75 70.5 0.0016262
  69 77 79.9 0.00184302
  70 79 82 0.00189146
  71 81 93.6 0.00215904
  72 83 78 0.0017992
  73 85 90.2 0.00208061
  74 87 69.9 0.00161236
  75 89 69.2 0.00159621
  76 91 58.2 0.00134248
  77 93 58 0.00133787
  78 95 33.6 0.000775039
  79 97 19 0.000438266
  80 99 13.9 0.000320626
  81 101 4.4 0.000101493
  82 103 4 9.22666e-05
  83 105 0 0
  84 107 0 0
  85 109 0 0
  86 111 0 0
  87 113 0 0
  88 115 0 0
  89 117 0 0
  90 119 0 0
  91 121 0 0
  92 123 0 0
  93 125 0 0
  94 127 0 0
  95 129 0 0
  96 131 0 0
  97 133 0 0
  98 135 0 0
  99 137 0 0
  100 139 0 0
  101 141 0 0
  102 143 0 0
  103 145 0 0
  104 147 0 0
  105 149 0 0
  106 151 0 0
  107 153 0 0
  108 155 0 0
  109 157 0 0
  110 159 0 0
  111 161 0 0
  112 163 0 0
  113 165 0 0
  114 167 0 0
  115 169 0 0
  116 171 0 0
  117 173 0 0
  118 175 0 0
  119 177 0 0
  120 179 0 0
  121 181 0 0
  122 183 0 0
  123 185 0 0
  124 187 0 0
  125 189 0 0
  126 191 0 0
  127 193 0 0
  128 195 0 0
  129 197 0 0
  130 199 0 0
  131 201 0 0
  132 203 0 0
  133 205 0 0
  134 207 0 0
  135 209 0 0
  136 211 0 0
  137 213 0 0
  138 215 0 0
  139 217 0 0
  140 219 0 0
  141 221 0 0
  142 223 0 0
  143 225 0 0
700000 143 2768
  1 -59 0 0
  2 -57 0 0
  3 -55 0 0
  4 -53 0 0
  5 -51 0 0
  6 -49 0 0
  7 -47 0 0
  8 -45 0 0
  9 -43 0 0
  10 -41 0 0
  11 -39 0 0
  12 -37 0 0
  13 -35 0 0
  14 -33 0 0
  15 -31 0 0
  16 -29 0 0
  17 -27 0 0
  18 -25 0 0
  19 -23 0 0
  20 -21 0 0
  21 -19 0 0
  22 -17 1 2.30666e-05
  23 -15 0 0
  24 -13 1 2.30666e-05
  25 -11 4 9.22666e-05
  26 -9 8 0.000184533
  27 -7 13.5 0.0003114
  28 -5 11.4 0.00026296
  29 -3 10.1 0.000232973
  30 -1 12.2 0.000281413
  31 1 18 0.0004152
  32 3 17.5 0.000403666
  33 5 15.3 0.00035292
  34 7 25.8 0.000595119
  35 9 21.7 0.000500546
  36 11 26.1 0.000602039
  37 13 30.1 0.000694306
  38 15 33.7 0.000777346
  39 17 36.4 0.000839626
  40 19 32.5 0.000749666
  41 21 32.7 0.000754279
  42 23 35.6 0.000821172
  43 25 28.7 0.000662013
  44 27 49.8 0.00114872
  45 29 31.6 0.000728906
  46 31 31.1 0.000717373
  47 33 32.5 0.000749666
  48 35 33.6 0.000775039
  49 37 37 0.000853466
  50 39 45.1 0.00104031
  51 41 56.8 0.00131019
  52 43 69.9 0.00161236
  53 45 67.8 0.00156392
  54 47 78.4 0.00180842
  55 49 73.6 0.0016977
  56 51 66.2 0.00152701
  57 53 76.7 0.00176921
  58 55 69.4 0.00160082
  59 57 71.3 0.00164465
  60 59 74.9 0.00172769
  61 61 68.8 0.00158698
  62 63 71 0.00163773
  63 65 68.8 0.00158698
  64 67 72.3 0.00166772
  65 69 73.1 0.00168617
  66 71 72.3 0.00166772
  67 73 59.1 0.00136324
  68 75 52.1 0.00120177
  69 77 59.9 0.00138169
  70 79 70.1 0.00161697
  71 81 50.2 0.00115795
  72 83 65.4 0.00150856
  73 85 46 0.00106107
  74 87 62 0.00143013
  75 89 64.4 0.00148549
  76 91 53 0.00122253
  77 93 62.4 0.00143936
  78 95 55.3 0.00127559
  79 97 44.2 0.00101955
  80 99 51.6 0.00119024
  81 101 44.2 0.00101955
  82 103 43.6 0.00100571
  83 105 25.3 0.000583586
  84 107 26.9 0.000620493
  85 109 10.9 0.000251426
  86 111 9 0.0002076
  87 113 1.1 2.53733e-05
  88 115 3.7 8.53466e-05
  89 117 0.3 6.91999e-06
  90 119 0 0
  91 121 0 0
  92 123 0 0
  93 125 0 0
  94 127 0 0
  95 129 0 0
  96 131 0 0
  97 133 0 0
  98 135 0 0
  99 137 0 0
  100 139 0 0
  101 141 0 0
  102 143 0 0
  103 145 0 0
  104 147 0 0
  105 149 0 0
  106 151 0 0
  107 153 0 0
  108 155 0 0
  109 157 0 0
  110 159 0 0
  111 161 0 0
  112 163 0 0
  113 165 0 0
  114 167 0 0
  115 169 0 0
  116 171 0 0
  117 173 0 0
  118 175 0 0
  119 177 0 0
  120 179 0 0
  121 181 0 0
  122 183 0 0
  123 185 0 0
  124 187 0 0
  125 189 0 0
  126 191 0 0
  127 193 0 0
  128 195 0 0
  129 197 0 0
  130 199 0 0
  131 201 0 0
  132 203 0 0
  133 205 0 0
  134 207 0 0
  135 209 0 0
  136 211 0 0
  137 213 0 0
  138 215 0 0
  139 217 0 0
  140 219 0 0
  141 221 0 0
  142 223 0 0
  143 225 0 0
800000 143 2768
  1 -59 0 0
  2 -57 0 0
  3 -55 0 0
  4 -53 0 0
  5 -51 0 0
  6 -49 0 0
  7 -47 0 0
  8 -45 0 0
  9 -43 1 2.30666e-05
  10 -41 0 0
  11 -39 2.3 5.30533e-05
  12 -37 2.7 6.22799e-05
  13 -35 1.9 4.38266e-05
  14 -33 5.1 0.00011764
  15 -31 5.4 0.00012456
  16 -29 8.9 0.000205293
  17 -27 14.7 0.00033908
  18 -25 7 0.000161466
  19 -23 12 0.0002768
  20 -21 10 0.000230666
  21 -19 11.2 0.000258346
  22 -17 15.6 0.00035984
  23 -15 16 0.000369066
  24 -13 18.2 0.000419813
  25 -11 14.3 0.000329853
  26 -9 16.4 0.000378293
  27 -7 15.1 0.000348306
  28 -5 13.7 0.000316013
  29 -3 13.4 0.000309093
  30 -1 21.3 0.000491319
  31 1 16.1 0.000371373
  32 3 27.1 0.000625106
  33 5 13.3 0.000306786
  34 7 20.8 0.000479786
  35 9 18.3 0.00042212
  36 11 19.2 0.00044288
  37 13 15 0.000346
  38 15 16.4 0.000378293
  39 17 17.2 0.000396746
  40 19 28.2 0.000650479
  41 21 23.1 0.000532839
  42 23 28.5 0.000657399
  43 25 30.9 0.000712759
  44 27 25.3 0.000583586
  45 29 27.4 0.000632026
  46 31 25 0.000576666
  47 33 25.5 0.000588199
  48 35 26.8 0.000618186
  49 37 31.7 0.000731213
  50 39 22.4 0.000516693
  51 41 37.4 0.000862692
  52 43 48.6 0.00112104
  53 45 44 0.00101493
  54 47 39.9 0.000920359
  55 49 60.4 0.00139323
  56 51 42 0.000968799
  57 53 65.2 0.00150395
  58 55 68.1 0.00157084
  59 57 67.3 0.00155239
  60 59 74.7 0.00172308
  61 61 80.4 0.00185456
  62 63 85.8 0.00197912
  63 65 78.7 0.00181534
  64 67 76.6 0.0017669
  65 69 74.1 0.00170924
  66 71 86.5 0.00199526
  67 73 69.9 0.00161236
  68 75 58.4 0.00134709
  69 77 62 0.00143013
  70 79 49 0.00113027
  71 81 54.5 0.00125713
  72 83 36.2 0.000835012
  73 85 51.9 0.00119716
  74 87 68 0.00156853
  75 89 71.9 0.00165849
  76 91 81.6 0.00188224
  77 93 75.8 0.00174845
  78 95 79.2 0.00182688
  79 97 65 0.00149933
  80 99 70.8 0.00163312
  81 101 56.1 0.00129404
  82 103 44.5 0.00102647
  83 105 32.9 0.000758893
  84 107 15.6 0.00035984
  85 109 7.6 0.000175306
  86 111 3 6.91999e-05
  87 113 0 0
  88 115 0 0
  89 117 0 0
  90 119 0 0
  91 121 0 0
  92 123 0 0
  93 125 0 0
  94 127 0 0
  95 129 0 0
  96 131 0 0
  97 133 0 0
  98 135 0 0
  99 137 0 0
  100 139 0 0
  101 141 0 0
  102 143 0 0
  103 145 0 0
  104 147 0 0
  105 149 0 0
  106 151 0 0
  107 153 0 0
  108 155 0 0
  109 157 0 0
  110 159 0 0
  111 161 0 0
  112 163 0 0
  113 165 0 0
  114 167 0 0
  115 169 0 0
  116 171 0 0
  117 173 0 0
  118 175 0 0
  119 177 0 0
  120 179 0 0
  121 181 0 0
  122 183 0 0
  123 185 0 0
  124 187 0 0
  125 189 0 0
  126 191 0 0
  127 193 0 0
  128 195 0 0
  129 197 0 0
  130 199 0 0
  131 201 0 0
  132 203 0 0
  133 205 0 0
  134 207 0 0
  135 209 0 0
  136 211 0 0
  137 213 0 0
  138 215 0 0
  139 217 0 0
  140 219 0 0
  141 221 0 0
  142 223 0 0
  143 225 0 0
900000 143 2768
  1 -59 0 0
  2 -57 2.2 5.07466e-05
  3 -55 1.8 4.152e-05
  4 -53 14.3 0.000329853
  5 -51 13.9 0.000320626
  6 -49 17.3 0.000399053
  7 -47 16 0.000369066
  8 -45 9.5 0.000219133
  9 -43 15.9 0.00036676
  10 -41 11.6 0.000267573
  11 -39 11.9 0.000274493
  12 -37 15.2 0.000350613
  13 -35 18.7 0.000431346
  14 -33 10.8 0.00024912
  15 -31 25.5 0.000588199
  16 -29 14.4 0.00033216
  17 -27 12 0.0002768
  18 -25 7 0.000161466
  19 -23 4 9.22666e-05
  20 -21 12 0.0002768
  21 -19 8 0.000184533
  22 -17 11 0.000253733
  23 -15 7.5 0.000173
  24 -13 16.2 0.00037368
  25 -11 16.3 0.000375986
  26 -9 21.1 0.000486706
  27 -7 19.7 0.000454413
  28 -5 16.2 0.00037368
  29 -3 19.6 0.000452106
  30 -1 11.1 0.00025604
  31 1 11.4 0.00026296
  32 3 18.4 0.000424426
  33 5 21.7 0.000500546
  34 7 11.1 0.00025604
  35 9 27.6 0.000636639
  36 11 18.5 0.000426733
  37 13 21.5 0.000495933
  38 15 18.1 0.000417506
  39 17 18.3 0.00042212
  40 19 23.8 0.000548986
  41 21 17.4 0.00040136
  42 23 20.6 0.000475173
  43 25 21 0.000484399
  44 27 20.1 0.00046364
  45 29 20.3 0.000468253
  46 31 16.4 0.000378293
  47 33 18.4 0.000424426
  48 35 21.8 0.000502853
  49 37 26.3 0.000606653
  50 39 35 0.000807332
  51 41 21.4 0.000493626
  52 43 33.4 0.000770426
  53 45 30.1 0.000694306
  54 47 27.1 0.000625106
  55 49 33.9 0.000781959
  56 51 32.9 0.000758893
  57 53 47.2 0.00108875
  58 55 50.6 0.00116717
  59 57 56.7 0.00130788
  60 59 78.2 0.00180381
  61 61 85 0.00196066
  62 63 114.1 0.0026319
  63 65 105.3 0.00242892
  64 67 98.3 0.00226745
  65 69 87.8 0.00202525
  66 71 63.6 0.00146704
  67 73 54.8 0.00126405
  68 75 45.5 0.00104953
  69 77 31.5 0.000726599
  70 79 37.6 0.000867306
  71 81 42.2 0.000973412
  72 83 55.5 0.0012802
  73 85 73.4 0.00169309
  74 87 98.9 0.00228129
  75 89 95.4 0.00220056
  76 91 108.4 0.00250042
  77 93 104 0.00239893
  78 95 92.4 0.00213136
  79 97 75 0.00173
  80 99 40.4 0.000931892
  81 101 37.6 0.000867306
  82 103 12.7 0.000292946
  83 105 8.5 0.000196066
  84 107 0.2 4.61333e-06
  85 109 0 0
  86 111 0 0
  87 113 0 0
  88 115 0 0
  89 117 0 0
  90 119 0 0
  91 121 0 0
  92 123 0 0
  93 125 0 0
  94 127 0 0
  95 129 0 0
  96 131 0 0
  97 133 0 0
  98 135 0 0
  99 137 0 0
  100 139 0 0
  101 141 0 0
  102 143 0 0
  103 145 0 0
  104 147 0 0
  105 149 0 0
  106 151 0 0
  107 153 0 0
  108 155 0 0
  109 157 0 0
  110 159 0 0
  111 161 0 0
  112 163 0 0
  113 165 0 0
  114 167 0 0
  115 169 0 0
  116 171 0 0
  117 173 0 0
  118 175 0 0
  119 177 0 0
  120 179 0 0
  121 181 0 0
  122 183 0 0
  123 185 0 0
  124 187 0 0
  125 189 0 0
  126 191 0 0
  127 193 0 0
  128 195 0 0
  129 197 0 0
  130 199 0 0
  131 201 0 0
  132 203 0 0
  133 205 0 0
  134 207 0 0
  135 209 0 0
  136 211 0 0
  137 213 0 0
  138 215 0 0
  139 217 0 0
  140 219 0 0
  141 221 0 0
  142 223 0 0
  143 225 0 0
1000000 143 2768
  1 -59 0 0
  2 -57 0 0
  3 -55 2 4.61333e-05
  4 -53 4.7 0.000108413
  5 -51 8.2 0.000189146
  6 -49 13.6 0.000313706
  7 -47 20.8 0.000479786
  8 -45 20.5 0.000472866
  9 -43 17 0.000392133
  10 -41 15 0.000346
  11 -39 20.8 0.000479786
  12 -37 17.5 0.000403666
  13 -35 10.3 0.000237586
  14 -33 9.9 0.00022836
  15 -31 12.9 0.00029756
  16 -29 11.8 0.000272186
  17 -27 14.5 0.000334466
  18 -25 12.1 0.000279106
  19 -23 15.4 0.000355226
  20 -21 8.7 0.00020068
  21 -19 11.4 0.00026296
  22 -17 9.2 0.000212213
  23 -15 10.7 0.000246813
  24 -13 5.4 0.00012456
  25 -11 14.6 0.000336773
  26 -9 10.6 0.000244506
  27 -7 22.3 0.000514386
  28 -5 5.2 0.000119947
  29 -3 16.6 0.000382906
  30 -1 16.2 0.00037368
  31 1 15.6 0.00035984
  32 3 12.5 0.000288333
  33 5 18.7 0.000431346
  34 7 21.2 0.000489013
  35 9 15.7 0.000362146
  36 11 9.5 0.000219133
  37 13 12.9 0.00029756
  38 15 9.1 0.000209906
  39 17 24.7 0.000569746
  40 19 9.9 0.00022836
  41 21 15.1 0.000348306
  42 23 19.9 0.000459026
  43 25 19.8 0.00045672
  44 27 17.3 0.000399053
  45 29 12.2 0.000281413
  46 31 19.3 0.000445186
  47 33 13.5 0.0003114
  48 35 17.2 0.000396746
  49 37 15 0.000346
  50 39 16.5 0.0003806
  51 41 18.1 0.000417506
  52 43 26 0.000599733
  53 45 29.6 0.000682773
  54 47 31.7 0.000731213
  55 49 30 0.000691999
  56 51 39 0.000899599
  57 53 55.3 0.00127559
  58 55 79.3 0.00182918
  59 57 84.9 0.00195836
  60 59 111.7 0.00257654
  61 61 129.6 0.00298944
  62 63 124.7 0.00287641
  63 65 125.9 0.00290409
  64 67 85.7 0.00197681
  65 69 54 0.0012456
  66 71 31.5 0.000726599
  67 73 22.6 0.000521306
  68 75 25.3 0.000583586
  69 77 27.9 0.000643559
  70 79 26.4 0.000608959
  71 81 49.1 0.00113257
  72 83 69.4 0.00160082
  73 85 72.9 0.00168156
  74 87 108.7 0.00250734
  75 89 145.9 0.00336542
  76 91 155.2 0.00357994
  77 93 129.1 0.0029779
  78 95 97 0.00223746
  79 97 60.2 0.00138861
  80 99 32.8 0.000756586
  81 101 12.6 0.00029064
  82 103 2.4 5.53599e-05
  83 105 0 0
  84 107 0 0
  85 109 0 0
  86 111 0 0
  87 113 0 0
  88 115 0 0
  89 117 0 0
  90 119 0 0
  91 121 0 0
  92 123 0 0
  93 125 0 0
  94 127 0 0
  95 129 0 0
  96 131 0 0
  97 133 0 0
  98 135 0 0
  99 137 0 0
  100 139 0 0
  101 141 0 0
  102 143 0 0
  103 145 0 0
  104 147 0 0
  105 149 0 0
  106 151 0 0
  107 153 0 0
  108 155 0 0
  109 157 0 0
  110 159 0 0
  111 161 0 0
  112 163 0 0
  113 165 0 0
  114 167 0 0
  115 169 0 0
  116 171 0 0
  117 173 0 0
  118 175 0 0
  119 177 0 0
  120 179 0 0
  121 181 0 0
  122 183 0 0
  123 185 0 0
  124 187 0 0
  125 189 0 0
  126 191 0 0
  127 193 0 0
  128 195 0 0
  129 197 0 0
  130 199 0 0
  131 201 0 0
  132 203 0 0
  133 205 0 0
  134 207 0 0
  135 209 0 0
  136 211 0 0
  137 213 0 0
  138 215 0 0
  139 217 0 0
  140 219 0 0
  141 221 0 0
  142 223 0 0
  143 225 0 0
1100000 143 2768
  1 -59 0 0
  2 -57 0 0
  3 -55 0 0
  4 -53 2 4.61333e-05
  5 -51 8.4 0.00019376
  6 -49 16.4 0.000378293
  7 -47 20.1 0.00046364
  8 -45 24.3 0.000560519
  9 -43 18.3 0.00042212
  10 -41 17.1 0.00039444
  11 -39 20.7 0.000477479
  12 -37 15 0.000346
  13 -35 14.7 0.00033908
  14 -33 3.6 8.30399e-05
  15 -31 10.3 0.000237586
  16 -29 12.3 0.00028372
  17 -27 16.6 0.000382906
  18 -25 12.5 0.000288333
  19 -23 14.8 0.000341386
  20 -21 6.9 0.00015916
  21 -19 7.4 0.000170693
  22 -17 7.8 0.00017992
  23 -15 15 0.000346
  24 -13 13 0.000299866
  25 -11 17.9 0.000412893
  26 -9 12.3 0.00028372
  27 -7 11.1 0.00025604
  28 -5 5.6 0.000129173
  29 -3 7.9 0.000182226
  30 -1 12.4 0.000286026
  31 1 10.3 0.000237586
  32 3 16.7 0.000385213
  33 5 16.6 0.000382906
  34 7 16.3 0.000375986
  35 9 13.9 0.000320626
  36 11 19.5 0.0004498
  37 13 16.7 0.000385213
  38 15 14.7 0.00033908
  39 17 16.2 0.00037368
  40 19 14.4 0.00033216
  41 21 8.1 0.00018684
  42 23 9 0.0002076
  43 25 10.2 0.00023528
  44 27 13.2 0.00030448
  45 29 13.9 0.000320626
  46 31 10 0.000230666
  47 33 7.2 0.00016608
  48 35 16.9 0.000389826
  49 37 15.1 0.000348306
  50 39 8.3 0.000191453
  51 41 13.4 0.000309093
  52 43 11.3 0.000260653
  53 45 16.4 0.000378293
  54 47 22.5 0.000518999
  55 49 38.8 0.000894986
  56 51 38.3 0.000883452
  57 53 78.9 0.00181996
  58 55 102.8 0.00237125
  59 57 139.1 0.00320857
  60 59 152.6 0.00351997
  61 61 160.7 0.00370681
  62 63 172.1 0.00396977
  63 65 85.1 0.00196297
  64 67 20.4 0.00047056
  65 69 0 0
  66 71 0.5 1.15333e-05
  67 73 3 6.91999e-05
  68 75 10.3 0.000237586
  69 77 12.2 0.000281413
  70 79 32.1 0.000740439
  71 81 64 0.00147627
  72 83 93 0.0021452
  73 85 150.7 0.00347614
  74 87 183.1 0.0042235
  75 89 184.5 0.0042558
  76 91 153.4 0.00353842
  77 93 107.2 0.00247274
  78 95 65.5 0.00151087
  79 97 31 0.000715066
  80 99 12.7 0.000292946
  81 101 0.8 1.84533e-05
  82 103 0 0
  83 105 0 0
  84 107 0 0
  85 109 0 0
  86 111 0 0
  87 113 0 0
  88 115 0 0
  89 117 0 0
  90 119 0 0
  91 121 0 0
  92 123 0 0
  93 125 0 0
  94 127 0 0
  95 129 0 0
  96 131 0 0
  97 133 0 0
  98 135 0 0
  99 137 0 0
  100 139 0 0
  101 141 0 0
  102 143 0 0
  103 145 0 0
  104 147 0 0
  105 149 0 0
  106 151 0 0
  107 153 0 0
  108 155 0 0
  109 157 0 0
  110 159 0 0
  111 161 0 0
  112 163 0 0
  113 165 0 0
  114 167 0 0
  115 169 0 0
  116 171 0 0
  117 173 0 0
  118 175 0 0
  119 177 0 0
  120 179 0 0
  121 181 0 0
  122 183 0 0
  123 185 0 0
  124 187 0 0
  125 189 0 0
  126 191 0 0
  127 193 0 0
  128 195 0 0
  129 197 0 0
  130 199 0 0
  131 201 0 0
  132 203 0 0
  133 205 0 0
  134 207 0 0
  135 209 0 0
  136 211 0 0
  137 213 0 0
  138 215 0 0
  139 217 0 0
  140 219 0 0
  141 221 0 0
  142 223 0 0
  143 225 0 0
1200000 143 2768
  1 -59 0 0
  2 -57 0 0
  3 -55 2.7 6.22799e-05
  4 -53 1.4 3.22933e-05
  5 -51 7.5 0.000173
  6 -49 15.8 0.000364453
  7 -47 20.9 0.000482093
  8 -45 17.2 0.000396746
  9 -43 24.8 0.000572053
  10 -41 18 0.0004152
  11 -39 23.1 0.000532839
  12 -37 15.5 0.000357533
  13 -35 13.1 0.000302173
  14 -33 7 0.000161466
  15 -31 8.3 0.000191453
  16 -29 12.7 0.000292946
  17 -27 10.8 0.00024912
  18 -25 13.2 0.00030448
  19 -23 12.1 0.000279106
  20 -21 4 9.22666e-05
  21 -19 13.4 0.000309093
  22 -17 16.5 0.0003806
  23 -15 11 0.000253733
  24 -13 11.8 0.000272186
  25 -11 11.2 0.000258346
  26 -9 9.5 0.000219133
  27 -7 11 0.000253733
  28 -5 8.4 0.00019376
  29 -3 9.1 0.000209906
  30 -1 13.7 0.000316013
  31 1 11.3 0.000260653
  32 3 15.4 0.000355226
  33 5 16.1 0.000371373
  34 7 13.9 0.000320626
  35 9 17.5 0.000403666
  36 11 14.5 0.000334466
  37 13 14.1 0.00032524
  38 15 13.5 0.0003114
  39 17 10.2 0.00023528
  40 19 12.3 0.00028372
  41 21 14.5 0.000334466
  42 23 11.3 0.000260653
  43 25 13.5 0.0003114
  44 27 9.2 0.000212213
  45 29 5.7 0.00013148
  46 31 11.3 0.000260653
  47 33 9 0.0002076
  48 35 11.2 0.000258346
  49 37 10.4 0.000239893
  50 39 15.3 0.00035292
  51 41 14.4 0.00033216
  52 43 12.5 0.000288333
  53 45 17.6 0.000405973
  54 47 19.7 0.000454413
  55 49 33.8 0.000779653
  56 51 53.1 0.00122484
  57 53 87.5 0.00201833
  58 55 133.5 0.0030794
  59 57 152.6 0.00351997
  60 59 187.6 0.0043273
  61 61 163.6 0.0037737
  62 63 122.9 0.00283489
  63 65 58.3 0.00134479
  64 67 11 0.000253733
  65 69 2 4.61333e-05
  66 71 1 2.30666e-05
  67 73 5.3 0.000122253
  68 75 13.6 0.000313706
  69 77 20 0.000461333
  70 79 34.2 0.000788879
  71 81 56.8 0.00131019
  72 83 106.6 0.0024589
  73 85 163.1 0.00376217
  74 87 179.4 0.00413816
  75 89 181.4 0.00418429
  76 91 151.5 0.0034946
  77 93 102.5 0.00236433
  78 95 55.1 0.00127097
  79 97 22.8 0.000525919
  80 99 9.7 0.000223746
  81 101 1 2.30666e-05
  82 103 0 0
  83 105 0 0
  84 107 0 0
  85 109 0 0
  86 111 0 0
  87 113 0 0
  88 115 0 0
  89 117 0 0
  90 119 0 0
  91 121 0 0
  92 123 0 0
  93 125 0 0
  94 127 0 0
  95 129 0 0
  96 131 0 0
  97 133 0 0
  98 135 0 0
  99 137 0 0
  100 139 0 0
  101 141 0 0
  102 143 0 0
  103 145 0 0
  104 147 0 0
  105 149 0 0
  106 151 0 0
  107 153 0 0
  108 155 0 0
  109 157 0 0
  110 159 0 0
  111 161 0 0
  112 163 0 0
  113 165 0 0
  114 167 0 0
  115 169 0 0
  116 171 0 0
  117 173 0 0
  118 175 0 0
  119 177 0 0
  120 179 0 0
  121 181 0 0
  122 183 0 0
  123 185 0 0
  124 187 0 0
  125 189 0 0
  126 191 0 0
  127 193 0 0
  128 195 0 0
  129 197 0 0
  130 199 0 0
  131 201 0 0
  132 203 0 0
  133 205 0 0
  134 207 0 0
  135 209 0 0
  136 211 0 0
  137 213 0 0
  138 215 0 0
  139 217 0 0
  140 219 0 0
  141 221 0 0
  142 223 0 0
  143 225 0 0
1300000 143 2768
  1 -59 0 0
  2 -57 0 0
  3 -55 2.8 6.45866e-05
  4 -53 1.3 2.99866e-05
  5 -51 11.7 0.00026988
  6 -49 16.7 0.000385213
  7 -47 22 0.000507466
  8 -45 24.9 0.000574359
  9 -43 23.7 0.000546679
  10 -41 16.5 0.0003806
  11 -39 20.6 0.000475173
  12 -37 12.1 0.000279106
  13 -35 13.2 0.00030448
  14 -33 10.5 0.0002422
  15 -31 11 0.000253733
  16 -29 9.9 0.00022836
  17 -27 11.1 0.00025604
  18 -25 6.7 0.000154547
  19 -23 8.3 0.000191453
  20 -21 7.1 0.000163773
  21 -19 6.9 0.00015916
  22 -17 7.7 0.000177613
  23 -15 12.7 0.000292946
  24 -13 12.6 0.00029064
  25 -11 12.6 0.00029064
  26 -9 13.7 0.000316013
  27 -7 7.2 0.00016608
  28 -5 12.4 0.000286026
  29 -3 11.6 0.000267573
  30 -1 7.8 0.00017992
  31 1 6.4 0.000147627
  32 3 11.9 0.000274493
  33 5 18.3 0.00042212
  34 7 19.6 0.000452106
  35 9 13.5 0.0003114
  36 11 13.6 0.000313706
  37 13 20.9 0.000482093
  38 15 12.7 0.000292946
  39 17 11.8 0.000272186
  40 19 11.1 0.00025604
  41 21 12.2 0.000281413
  42 23 10.9 0.000251426
  43 25 7.8 0.00017992
  44 27 10 0.000230666
  45 29 11.6 0.000267573
  46 31 12.1 0.000279106
  47 33 5 0.000115333
  48 35 12.3 0.00028372
  49 37 16.1 0.000371373
  50 39 10.3 0.000237586
  51 41 14.2 0.000327546
  52 43 15.3 0.00035292
  53 45 17.8 0.000410586
  54 47 21.8 0.000502853
  55 49 32.9 0.000758893
  56 51 62.1 0.00143244
  57 53 104.8 0.00241738
  58 55 130.8 0.00301712
  59 57 176.7 0.00407588
  60 59 152.6 0.00351997
  61 61 157.7 0.00363761
  62 63 116 0.00267573
  63 65 60.5 0.00139553
  64 67 16.3 0.000375986
  65 69 1.1 2.53733e-05
  66 71 0 0
  67 73 2.9 6.68933e-05
  68 75 6.5 0.000149933
  69 77 19.9 0.000459026
  70 79 42.1 0.000971106
  71 81 60.2 0.00138861
  72 83 119.9 0.00276569
  73 85 161.1 0.00371604
  74 87 194.6 0.00448877
  75 89 177.3 0.00408972
  76 91 141.2 0.00325701
  77 93 111.6 0.00257424
  78 95 39.1 0.000901906
  79 97 22.2 0.000512079
  80 99 3.6 8.30399e-05
  81 101 1.8 4.152e-05
  82 103 0 0
  83 105 0 0
  84 107 0 0
  85 109 0 0
  86 111 0 0
  87 113 0 0
  88 115 0 0
  89 117 0 0
  90 119 0 0
  91 121 0 0
  92 123 0 0
  93 125 0 0
  94 127 0 0
  95 129 0 0
  96 131 0 0
  97 133 0 0
  98 135 0 0
  99 137 0 0
  100 139 0 0
  101 141 0 0
  102 143 0 0
  103 145 0 0
  104 147 0 0
  105 149 0 0
  106 151 0 0
  107 153 0 0
  108 155 0 0
  109 157 0 0
  110 159 0 0
  111 161 0 0
  112 163 0 0
  113 165 0 0
  114 167 0 0
  115 169 0 0
  116 171 0 0
  117 173 0 0
  118 175 0 0
  119 177 0 0
  120 179 0 0
  121 181 0 0
  122 183 0 0
  123 185 0 0
  124 187 0 0
  125 189 0 0
  126 191 0 0
  127 193 0 0
  128 195 0 0
  129 197 0 0
  130 199 0 0
  131 201 0 0
  132 203 0 0
  133 205 0 0
  134 207 0 0
  135 209 0 0
  136 211 0 0
  137 213 0 0
  138 215 0 0
  139 217 0 0
  140 219 0 0
  141 221 0 0
  142 223 0 0
  143 225 0 0
1400000 143 2768
  1 -59 0 0
  2 -57 0 0
  3 -55 2 4.61333e-05
  4 -53 1 2.30666e-05
  5 -51 10.1 0.000232973
  6 -49 20.4 0.00047056
  7 -47 23.6 0.000544373
  8 -45 19 0.000438266
  9 -43 20.9 0.000482093
  10 -41 18.4 0.000424426
  11 -39 17.9 0.000412893
  12 -37 15.9 0.00036676
  13 -35 10.8 0.00024912
  14 -33 7.1 0.000163773
  15 -31 7.9 0.000182226
  16 -29 11.5 0.000265266
  17 -27 8.9 0.000205293
  18 -25 14.9 0.000343693
  19 -23 13.1 0.000302173
  20 -21 10.2 0.00023528
  21 -19 4.5 0.0001038
  22 -17 12.4 0.000286026
  23 -15 9.3 0.00021452
  24 -13 8.1 0.00018684
  25 -11 4.7 0.000108413
  26 -9 8.2 0.000189146
  27 -7 12.2 0.000281413
  28 -5 9.5 0.000219133
  29 -3 13.9 0.000320626
  30 -1 11 0.000253733
  31 1 16 0.000369066
  32 3 9.4 0.000216826
  33 5 12.1 0.000279106
  34 7 15.6 0.00035984
  35 9 14.5 0.000334466
  36 11 14.2 0.000327546
  37 13 17.6 0.000405973
  38 15 12.2 0.000281413
  39 17 4.5 0.0001038
  40 19 13.5 0.0003114
  41 21 11.7 0.00026988
  42 23 15.3 0.00035292
  43 25 9 0.0002076
  44 27 14.8 0.000341386
  45 29 10.2 0.00023528
  46 31 7.8 0.00017992
  47 33 13 0.000299866
  48 35 13.6 0.000313706
  49 37 7.9 0.000182226
  50 39 7.7 0.000177613
  51 41 10.2 0.00023528
  52 43 14.2 0.000327546
  53 45 18.4 0.000424426
  54 47 24 0.000553599
  55 49 35.8 0.000825786
  56 51 58.4 0.00134709
  57 53 94.5 0.0021798
  58 55 153.1 0.0035315
  59 57 162.1 0.0037391
  60 59 188.5 0.00434806
  61 61 174.7 0.00402974
  62 63 116.7 0.00269188
  63 65 44.2 0.00101955
  64 67 1.2 2.768e-05
  65 69 0 0
  66 71 0 0
  67 73 3 6.91999e-05
  68 75 9.3 0.00021452
  69 77 22.7 0.000523613
  70 79 30.7 0.000708146
  71 81 61.3 0.00141399
  72 83 116 0.00267573
  73 85 171.7 0.00396054
  74 87 204 0.0047056
  75 89 178.4 0.00411509
  76 91 151.2 0.00348768
  77 93 80.7 0.00186148
  78 95 39.4 0.000908826
  79 97 28.1 0.000648173
  80 99 6.5 0.000149933
  81 101 1 2.30666e-05
  82 103 0 0
  83 105 0 0
  84 107 0 0
  85 109 0 0
  86 111 0 0
  87 113 0 0
  88 115 0 0
  89 117 0 0
  90 119 0 0
  91 121 0 0
  92 123 0 0
  93 125 0 0
  94 127 0 0
  95 129 0 0
  96 131 0 0
  97 133 0 0
  98 135 0 0
  99 137 0 0
  100 139 0 0
  101 141 0 0
  102 143 0 0
  103 145 0 0
  104 147 0 0
  105 149 0 0
  106 151 0 0
  107 153 0 0
  108 155 0 0
  109 157 0 0
  110 159 0 0
  111 161 0 0
  112 163 0 0
  113 165 0 0
  114 167 0 0
  115 169 0 0
  116 171 0 0
  117 173 0 0
  118 175 0 0
  119 177 0 0
  120 179 0 0
  121 181 0 0
  122 183 0 0
  123 185 0 0
  124 187 0 0
  125 189 0 0
  126 191 0 0
  127 193 0 0
  128 195 0 0
  129 197 0 0
  130 199 0 0
  131 201 0 0
  132 203 0 0
  133 205 0 0
  134 207 0 0
  135 209 0 0
  136 211 0 0
  137 213 0 0
  138 215 0 0
  139 217 0 0
  140 219 0 0
  141 221 0 0
  142 223 0 0
  143 225 0 0
