# Chunk-averaged data for fix dens6 and group np
# Timestep Number-of-chunks Total-count
# Chunk Coord1 Ncount density/number
500000 143 262
  1 -59 0 0
  2 -57 0 0
  3 -55 0 0
  4 -53 0 0
  5 -51 0 0
  6 -49 0 0
  7 -47 0 0
  8 -45 0 0
  9 -43 0 0
  10 -41 0 0
  11 -39 0 0
  12 -37 0 0
  13 -35 0 0
  14 -33 0 0
  15 -31 0 0
  16 -29 0 0
  17 -27 0 0
  18 -25 0 0
  19 -23 0 0
  20 -21 0 0
  21 -19 0 0
  22 -17 0 0
  23 -15 0 0
  24 -13 0 0
  25 -11 0 0
  26 -9 0 0
  27 -7 0 0
  28 -5 0 0
  29 -3 0 0
  30 -1 0 0
  31 1 0 0
  32 3 0 0
  33 5 0 0
  34 7 0 0
  35 9 0 0
  36 11 0 0
  37 13 0 0
  38 15 0 0
  39 17 0 0
  40 19 0 0
  41 21 0 0
  42 23 0 0
  43 25 0 0
  44 27 0 0
  45 29 0 0
  46 31 0 0
  47 33 0 0
  48 35 0 0
  49 37 0 0
  50 39 0 0
  51 41 0 0
  52 43 0 0
  53 45 0 0
  54 47 0 0
  55 49 0 0
  56 51 0 0
  57 53 0 0
  58 55 0 0
  59 57 0 0
  60 59 0 0
  61 61 0 0
  62 63 0 0
  63 65 0 0
  64 67 0 0
  65 69 0 0
  66 71 0 0
  67 73 0 0
  68 75 0 0
  69 77 0 0
  70 79 0 0
  71 81 0 0
  72 83 0 0
  73 85 0 0
  74 87 0 0
  75 89 0 0
  76 91 0 0
  77 93 0 0
  78 95 0 0
  79 97 0 0
  80 99 0.4 9.22666e-06
  81 101 2.5 5.76666e-05
  82 103 6.7 0.000154547
  83 105 10.1 0.000232973
  84 107 10.7 0.000246813
  85 109 9.2 0.000212213
  86 111 7.5 0.000173
  87 113 8.2 0.000189146
  88 115 11.8 0.000272186
  89 117 9.6 0.00022144
  90 119 12.9 0.00029756
  91 121 11.2 0.000258346
  92 123 8.7 0.00020068
  93 125 8.5 0.000196066
  94 127 8.8 0.000202986
  95 129 9.3 0.00021452
  96 131 8.3 0.000191453
  97 133 8 0.000184533
  98 135 9.6 0.00022144
  99 137 11.5 0.000265266
  100 139 13.4 0.000309093
  101 141 12.6 0.00029064
  102 143 12.7 0.000292946
  103 145 13.7 0.000316013
  104 147 13.8 0.00031832
  105 149 9.4 0.000216826
  106 151 7.5 0.000173
  107 153 4.8 0.00011072
  108 155 0.6 1.384e-05
  109 157 0 0
  110 159 0 0
  111 161 0 0
  112 163 0 0
  113 165 0 0
  114 167 0 0
  115 169 0 0
  116 171 0 0
  117 173 0 0
  118 175 0 0
  119 177 0 0
  120 179 0 0
  121 181 0 0
  122 183 0 0
  123 185 0 0
  124 187 0 0
  125 189 0 0
  126 191 0 0
  127 193 0 0
  128 195 0 0
  129 197 0 0
  130 199 0 0
  131 201 0 0
  132 203 0 0
  133 205 0 0
  134 207 0 0
  135 209 0 0
  136 211 0 0
  137 213 0 0
  138 215 0 0
  139 217 0 0
  140 219 0 0
  141 221 0 0
  142 223 0 0
  143 225 0 0
