# Chunk-averaged data for fix na and group na
# Timestep Number-of-chunks Total-count
# Chunk Coord1 Ncount density/number
1000000 62 321
  1 -1 0 0
  2 1 1 2.23439e-05
  3 3 5.5 0.000122891
  4 5 4.5 0.000100547
  5 7 9.3 0.000207798
  6 9 13 0.00029047
  7 11 11.7 0.000261423
  8 13 10.3 0.000230142
  9 15 20 0.000446878
  10 17 15.6 0.000348565
  11 19 16.2 0.000361971
  12 21 16.5 0.000368674
  13 23 17.9 0.000399955
  14 25 12.4 0.000277064
  15 27 17.8 0.000397721
  16 29 10.8 0.000241314
  17 31 6.7 0.000149704
  18 33 5.8 0.000129594
  19 35 4.9 0.000109485
  20 37 5.4 0.000120657
  21 39 3.7 8.26724e-05
  22 41 1.4 3.12814e-05
  23 43 4.6 0.000102782
  24 45 0 0
  25 47 0 0
  26 49 0 0
  27 51 0 0
  28 53 0 0
  29 55 0 0
  30 57 0 0
  31 59 0 0
  32 61 0 0
  33 63 0 0
  34 65 0 0
  35 67 0 0
  36 69 0 0
  37 71 0 0
  38 73 0 0
  39 75 1.5 3.35158e-05
  40 77 0.7 1.56407e-05
  41 79 2.1 4.69221e-05
  42 81 1.9 4.24534e-05
  43 83 3.5 7.82036e-05
  44 85 0.9 2.01095e-05
  45 87 2.9 6.47972e-05
  46 89 8.2 0.00018322
  47 91 5.1 0.000113954
  48 93 10.2 0.000227908
  49 95 9.1 0.000203329
  50 97 5.9 0.000131829
  51 99 5.1 0.000113954
  52 101 8.2 0.00018322
  53 103 3.7 8.26724e-05
  54 105 7.1 0.000158642
  55 107 7.7 0.000172048
  56 109 6.2 0.000138532
  57 111 7.6 0.000169813
  58 113 4.5 0.000100547
  59 115 1.9 4.24534e-05
  60 117 1.6 3.57502e-05
  61 119 0.4 8.93755e-06
  62 121 0 0
