# Chunk-averaged data for fix na and group na
# Timestep Number-of-chunks Total-count
# Chunk Coord1 Ncount density/number
1000000 62 210
  1 -1 0 0
  2 1 0 0
  3 3 2 4.46313e-05
  4 5 3.7 8.25679e-05
  5 7 4.5 0.00010042
  6 9 9.2 0.000205304
  7 11 11.4 0.000254398
  8 13 11.6 0.000258861
  9 15 10.8 0.000241009
  10 17 9.8 0.000218693
  11 19 9.5 0.000211999
  12 21 9.2 0.000205304
  13 23 13 0.000290103
  14 25 10.7 0.000238777
  15 27 4.8 0.000107115
  16 29 9.6 0.00021423
  17 31 5 0.000111578
  18 33 3 6.69469e-05
  19 35 6.6 0.000147283
  20 37 3.7 8.25679e-05
  21 39 3 6.69469e-05
  22 41 2.9 6.47154e-05
  23 43 0 0
  24 45 0.5 1.11578e-05
  25 47 0.5 1.11578e-05
  26 49 0 0
  27 51 0 0
  28 53 0 0
  29 55 0 0
  30 57 0 0
  31 59 0 0
  32 61 0 0
  33 63 0 0
  34 65 0 0
  35 67 0 0
  36 69 0 0
  37 71 0 0
  38 73 0 0
  39 75 0 0
  40 77 1 2.23156e-05
  41 79 2 4.46313e-05
  42 81 1 2.23156e-05
  43 83 1 2.23156e-05
  44 85 1 2.23156e-05
  45 87 0 0
  46 89 0.4 8.92626e-06
  47 91 4.6 0.000102652
  48 93 3.4 7.58732e-05
  49 95 5.2 0.000116041
  50 97 2.4 5.35576e-05
  51 99 3.7 8.25679e-05
  52 101 7.1 0.000158441
  53 103 4.7 0.000104884
  54 105 6 0.000133894
  55 107 6.8 0.000151746
  56 109 2.7 6.02522e-05
  57 111 3.6 8.03363e-05
  58 113 5 0.000111578
  59 115 2.4 5.35576e-05
  60 117 0.8 1.78525e-05
  61 119 0.2 4.46313e-06
  62 121 0 0
